X5213D
X5213F
X5211G
X5213A
X5213C
X5213E
X5122D
X5122F
X5122H
X5124B
X5124D
X5124F
X4344A
X4344C
X4344E
X4344G
X5122A
X5122C
X5122E
X5122G
X5124A
X5124C
X5124E
X5124G
X4343B
X4343D
X4343F
X4343H
X5121B
X5121D
X5121F
X5121H
X5123B
X5123D
X5123F
X5123H
X5141B
X4341G
X4343A
X4343C
X4343E
X4343G
X5121A
X5121C
X5121E
X5121G
X5123A
X5123C
X5123E
X5123G
X5141A
X5141C
X4332F
X4332H
X4334B
X4334D
X4334F
X4334H
X5112B
X5112D
X5112F
X5112H
X5114B
X5114D
X5114F
X5114H
X5132B
X5132D
X5132F
X5132H
X4332C
X4332E
X4332G
X4334A
X4334C
X4334E
X4334G
X5112A
X5112C
X5112E
X5112G
X5114A
X5114C
X5114E
X5114G
X5132A
X5132C
X5132E
X5132G
X5134A
X5134C
X4331B
X4331D
X4331F
X4331H
X4333B
X4333D
X4333F
X4333H
X5111B
X5111D
X5111F
X5111H
X5113B
X5113D
X5113F
X5113H
X5131B
X5131D
X5131F
X5131H
X5133B
X5133D
X5133F
X4331A
X4331C
X4331E
X4331G
X4333A
X4333C
X4333E
X4333G
X5111A
X5111C
X5111E
X5111G
X5113A
X5113C
X5113E
X5113G
X5131A
X5131C
X5131E
X5131G
X5133A
X5133C
X5133E
W4442B
W4442D
W4442F
W4442H
W4444B
W4444D
W4444F
W4444H
W5222B
W5222D
W5222F
W5222H
W5224B
W5224D
W5224F
W5224H
W5242B
W5242D
W5242F
W5242H
W5244B
W5244D
W5244F
W4442A
W4442C
W4442E
W4442G
W4444A
W4444C
W4444E
W4444G
W5222A
W5222C
W5222E
W5222G
W5224A
W5224C
W5224E
W5224G
W5242A
W5242C
W5242E
W5242G
W5244A
W5244C
W5244E
W5244G
W4441B
W4441D
W4441F
W4441H
W4443B
W4443D
W4443F
W4443H
W5221B
W5221D
W5221F
W5221H
W5223B
W5223D
W5223F
W5223H
W5241B
W5241D
W5241F
W5241H
W5243B
W5243D
W5243F
W5243H
W3441E
W3441G
W4441A
W4441C
W4441E
W4441G
W4443A
W4443C
W4443E
W4443G
W5221A
W5221C
W5221E
W5221G
W5223A
W5223C
W5223E
W5223G
W5241A
W5241C
W5241E
W5241G
W5243A
W5243C
W5243E
W3432B
W3432D
W3432F
W3432H
W3434B
W4414H
W4432B
W4432D
W4432F
W4432H
W4434B
W4434D
W4434F
W4434H
W5212B
W5212D
W5212F
W5212H
W5214B
W5214D
W5214F
W5214H
W5232B
W5232D
W5232F
W5232H
W5234B
W5234D
W5234F
W3432A
W3432C
W3432E
W3432G
W3434A
W3434C
W4414G
W4432A
W4432C
W4432E
W4432G
W4434A
W4434C
W4434E
W4434G
W5212A
W5212C
W5212E
W5212G
W5214A
W5214C
W5214E
W5214G
W5232A
W5232C
W5232E
W5232G
W5234A
W5234C
W3413F
W3431B
W3431D
W3431F
W3431H
W3433B
W3433D
W4413H
W4431B
W4431D
W4431F
W4431H
W4433B
W4433D
W4433F
W4433H
W5211B
W5211D
W5211F
W5211H
W5213B
W5213D
W5213F
W5213H
W5231B
W5231D
W5231F
W5231H
W5233B
W3413C
W3413E
W3413G
W3431A
W3431C
W3431E
W3431G
W3433A
W3433C
W3433E
W4413G
W4431A
W4431C
W4431E
W4431G
W4433A
W4433C
W4433E
W4433G
W5211A
W5211C
W5211E
W5211G
W5213A
W5213C
W5213E
W5213G
W5231A
W5231C
W5231E
W5231G
W5233A
W3324D
W3324F
W3324H
W3342B
W3342D
W3342F
W3342H
W3344B
W3344D
W3344F
W4324H
W4342B
W4342D
W4342F
W4342H
W4344B
W4344D
W4344F
W4344H
W5122B
W5122D
W5122F
W5122H
W5124B
W5124D
W5124F
W5124H
W5142B
W5142D
W5142F
W5142H
W5144B
W3324E
W3324G
W3342A
W3342C
W3342E
W3342G
W3344A
W3344C
W3344E
W3344G
W4324G
W4342A
W4342C
W4342E
W4342G
W4344A
W4344C
W4344E
W4344G
W5122A
W5122C
W5122E
W5122G
W5124A
W5124C
W5124E
W5124G
W5142A
W5142C
W5142E
W5142G
W5144A
W3323F
W3323H
W3341B
W3341D
W3341F
W3341H
W3343B
W3343D
W3343F
W3343H
W4323H
W4341B
W4341D
W4341F
W4341H
W4343B
W4343D
W4343F
W4343H
W5121B
W5121D
W5121F
W5121H
W5123B
W5123D
W5123F
W5123H
W5141B
W5141D
W5141F
W5141H
W5143B
W3323G
W3341A
W3341C
W3341E
W3341G
W3343A
W3343C
W3343E
W3343G
W4121A
W4323G
W4341A
W4341C
W4341E
W4341G
W4343A
W4343C
W4343E
W4343G
W5121A
W5121C
W5121E
W5121G
W5123A
W5123C
W5123E
W5123G
W5141A
W5141C
W5141E
W5141G
W3332B
W3332D
W3332F
W3332H
W3334B
W3334D
W3334F
W3334H
W4112B
W4314D
W4314F
W4314H
W4332B
W4332D
W4332F
W4332H
W4334B
W4334D
W4334F
W4334H
W5112B
W5112D
W5112F
W5112H
W5114B
W5114D
W5114F
W5114H
W5132B
W5132D
W5132F
W3332C
W3332E
W3332G
W3334A
W3334C
W3334E
W3334G
W4112A
W4132E
W4132G
W4314A
W4314C
W4314E
W4314G
W4332A
W4332C
W4332E
W4332G
W4334A
W4334C
W4334E
W4334G
W5112A
W5112C
W5112E
W5112G
W5114A
W5114C
W5114E
W5114G
W5132A
W5132C
W5132E
W5132G
W5134A
W3331F
W3331H
W3333B
W3333D
W3333F
W3333H
W4111B
W4111D
W4111F
W4131F
W4131H
W4133B
W4311H
W4313B
W4313D
W4313F
W4313H
W4331B
W4331D
W4331F
W4331H
W4333B
W4333D
W4333F
W4333H
W5111B
W5111D
W5111F
W5111H
W5113B
W5113D
W5113F
W5113H
W5131B
W5131D
W5131F
W5131H
W3331E
W3331G
W3333A
W3333C
W3333E
W3333G
W4111A
W4111C
W4111E
W4111G
W4131C
W4131E
W4131G
W4133A
W4133C
W4311G
W4313A
W4313C
W4313E
W4313G
W4331A
W4331C
W4331E
W4331G
W4333A
W4333C
W4333E
W4333G
W5111A
W5111C
W5111E
W5111G
W5113A
W5113C
W5113E
W5113G
W5131A
W5131C
W5131E
W5131G
V3442H
V3444B
V3444D
V3444F
V3444H
V4222B
V4222D
V4222F
V4222H
V4224B
V4224D
V4224F
V4224H
V4242B
V4242D
V4242F
V4242H
V4244B
V4244D
V4244F
V4244H
V4422H
V4424B
V4424D
V4424F
V4424H
V4442B
V4442D
V4442F
V4442H
V4444B
V4444D
V4444F
V4444H
V5222B
V5222D
V5222F
V5222H
V5224B
V5224D
V5224F
V5224H
V5242B
V5242D
V5242F
V5242H
V3444A
V3444C
V3444E
V3444G
V4222A
V4222C
V4222E
V4222G
V4224A
V4224C
V4224E
V4224G
V4242A
V4242C
V4242E
V4242G
V4244A
V4244C
V4244E
V4244G
V4422A
V4422C
V4422E
V4422G
V4424A
V4424C
V4424E
V4424G
V4442A
V4442C
V4442E
V4442G
V4444A
V4444C
V4444E
V4444G
V5222A
V5222C
V5222E
V5222G
V5224A
V5224C
V5224E
V5224G
V5242A
V5242C
V5242E
V5242G
V3443D
V3443F
V3443H
V4221B
V4221D
V4221F
V4221H
V4223B
V4223D
V4223F
V4223H
V4241B
V4241D
V4241F
V4241H
V4243B
V4243D
V4243F
V4243H
V4421B
V4421D
V4421F
V4421H
V4423B
V4423D
V4423F
V4423H
V4441B
V4441D
V4441F
V4441H
V4443B
V4443D
V4443F
V4443H
V5221B
V5221D
V5221F
V5221H
V5223B
V5223D
V5223F
V5223H
V5241B
V5241D
V5241F
V3443E
V3443G
V4221A
V4221C
V4221E
V4221G
V4223A
V4223C
V4223E
V4223G
V4241A
V4241C
V4241E
V4241G
V4243A
V4243C
V4243E
V4243G
V4421A
V4421C
V4421E
V4421G
V4423A
V4423C
V4423E
V4423G
V4441A
V4441C
V4441E
V4441G
V4443A
V4443C
V4443E
V4443G
V5221A
V5221C
V5221E
V5221G
V5223A
V5223C
V5223E
V5223G
V5241A
V5241C
V5241E
V4212B
V4212D
V4212F
V4212H
V4214B
V4214D
V4214F
V4214H
V4232B
V4232D
V4232F
V4232H
V4234B
V4234D
V4234F
V4234H
V4412B
V4412D
V4412F
V4412H
V4414B
V4414D
V4414F
V4414H
V4432B
V4432D
V4432F
V4432H
V4434B
V4434D
V4434F
V4434H
V5212B
V5212D
V5212F
V5212H
V5214B
V5214D
V5214F
V5214H
V5232B
V5232D
V5232F
V4212E
V4212G
V4214A
V4214C
V4214E
V4214G
V4232A
V4232C
V4232E
V4232G
V4234A
V4234C
V4234E
V4234G
V4412A
V4412C
V4412E
V4412G
V4414A
V4414C
V4414E
V4414G
V4432A
V4432C
V4432E
V4432G
V4434A
V4434C
V4434E
V4434G
V5212A
V5212C
V5212E
V5212G
V5214A
V5214C
V5214E
V5214G
V5232A
V5232C
V5232E
V4211H
V4213B
V4213D
V4213F
V4213H
V4231B
V4231D
V4231F
V4231H
V4233B
V4233D
V4233F
V4233H
V4411B
V4411D
V4411F
V4411H
V4413B
V4413D
V4413F
V4413H
V4431B
V4431D
V4431F
V4431H
V4433B
V4433D
V4433F
V4433H
V5211B
V5211D
V5211F
V5211H
V5213B
V5213D
V5213F
V5213H
V5231B
V5231D
V5231F
V4213A
V4213C
V4213E
V4213G
V4231A
V4231C
V4231E
V4231G
V4233A
V4233C
V4233E
V4233G
V4411A
V4411C
V4411E
V4411G
V4413A
V4413C
V4413E
V4413G
V4431A
V4431C
V4431E
V4431G
V4433A
V4433C
V4433E
V4433G
V5211A
V5211C
V5211E
V5211G
V5213A
V5213C
V5213E
V5213G
V5231A
V5231C
V5231E
V4124B
V4124D
V4124F
V4124H
V4142B
V4142D
V4142F
V4142H
V4144B
V4144D
V4144F
V4144H
V4322B
V4322D
V4322F
V4322H
V4324B
V4324D
V4324F
V4324H
V4342B
V4342D
V4342F
V4342H
V4344B
V4344D
V4344F
V4344H
V5122B
V5122D
V5122F
V5122H
V5124B
V5124D
V5124F
V5124H
V5142B
V5142D
V5142F
V5142H
V4124C
V4124E
V4124G
V4142A
V4142C
V4142E
V4142G
V4144A
V4144C
V4144E
V4144G
V4322A
V4322C
V4322E
V4322G
V4324A
V4324C
V4324E
V4324G
V4342A
V4342C
V4342E
V4342G
V4344A
V4344C
V4344E
V4344G
V5122A
V5122C
V5122E
V5122G
V5124A
V5124C
V5124E
V5124G
V5142A
V5142C
V5142E
V5142G
V4123D
V4123F
V4123H
V4141B
V4141D
V4141F
V4141H
V4143B
V4143D
V4143F
V4143H
V4321B
V4321D
V4321F
V4321H
V4323B
V4323D
V4323F
V4323H
V4341B
V4341D
V4341F
V4341H
V4343B
V4343D
V4343F
V4343H
V5121B
V5121D
V5121F
V5121H
V5123B
V5123D
V5123F
V5123H
V5141B
V5141D
V5141F
V5141H
V5143B
V5143D
V4123E
V4123G
V4141A
V4141C
V4141E
V4141G
V4143A
V4143C
V4143E
V4143G
V4321A
V4321C
V4321E
V4321G
V4323A
V4323C
V4323E
V4323G
V4341A
V4341C
V4341E
V4341G
V4343A
V4343C
V4343E
V4343G
V5121A
V5121C
V5121E
V5121G
V5123A
V5123C
V5123E
V5123G
V5141A
V5141C
V5141E
V5141G
V5143A
V5143C
V5143E
V5143G
V4114F
V4114H
V4132B
V4132D
V4132F
V4132H
V4134B
V4134D
V4134F
V4134H
V4312B
V4312D
V4312F
V4312H
V4314B
V4314D
V4314F
V4314H
V4332B
V4332D
V4332F
V4332H
V4334B
V4334D
V4334F
V4334H
V5112B
V5112D
V5112F
V5112H
V5114B
V5114D
V5114F
V5114H
V5132B
V5132D
V5132F
V5132H
V5134B
V5134D
V5134F
V5134H
V5312B
V4114G
V4132A
V4132C
V4132E
V4132G
V4134A
V4134C
V4134E
V4134G
V4312A
V4312C
V4312E
V4312G
V4314A
V4314C
V4314E
V4314G
V4332A
V4332C
V4332E
V4332G
V4334A
V4334C
V4334E
V4334G
V5112A
V5112C
V5112E
V5112G
V5114A
V5114C
V5114E
V5114G
V5132A
V5132C
V5132E
V5132G
V5134A
V5134C
V5134E
V5134G
V5312A
V5312C
V4131B
V4131D
V4131F
V4131H
V4133B
V4133D
V4133F
V4133H
V4311B
V4311D
V4311F
V4311H
V4313B
V4313D
V4313F
V4313H
V4331B
V4331D
V4331F
V4331H
V4333B
V4333D
V4333F
V4333H
V5111B
V5111D
V5111F
V5111H
V5113B
V5113D
V5113F
V5113H
V5131B
V5131D
V5131F
V5131H
V5133B
V5133D
V5133F
V5133H
V5311B
V5311D
V4113G
V4131A
V4131C
V4131E
V4131G
V4133A
V4133C
V4133E
V4133G
V4311A
V4311C
V4311E
V4311G
V4313A
V4313C
V4313E
V4313G
V4331A
V4331C
V4331E
V4331G
V4333A
V4333C
V4333E
V4333G
V5111A
V5111C
V5111E
V5111G
V5113A
V5113C
V5113E
V5113G
V5131A
V5131C
V5131E
V5131G
V5133A
V5133C
V5133E
V5133G
V5311A
V5311C
V5311E
U4224H
U4242B
U4242D
U4242F
U4242H
U4244B
U4244D
U4244F
U4244H
U4422B
U4422D
U4422F
U4422H
U4424B
U4424D
U4424F
U4424H
U4442B
U4442D
U4442F
U4442H
U4444B
U4444D
U4444F
U4444H
U5222B
U5222D
U5222F
U5222H
U5224B
U5224D
U5224F
U5224H
U5242B
U5242D
U5242F
U5242H
U5244B
U5244D
U5244F
U5244H
U5422B
U5422D
U5422F
U4224G
U4242A
U4242C
U4242E
U4242G
U4244A
U4244C
U4244E
U4244G
U4422A
U4422C
U4422E
U4422G
U4424A
U4424C
U4424E
U4424G
U4442A
U4442C
U4442E
U4442G
U4444A
U4444C
U4444E
U4444G
U5222A
U5222C
U5222E
U5222G
U5224A
U5224C
U5224E
U5224G
U5242A
U5242C
U5242E
U5242G
U5244A
U5244C
U5244E
U5244G
U5422A
U5422C
U5422E
U5422G
U4223H
U4241B
U4241D
U4241F
U4241H
U4243B
U4243D
U4243F
U4243H
U4421B
U4421D
U4421F
U4421H
U4423B
U4423D
U4423F
U4423H
U4441B
U4441D
U4441F
U4441H
U4443B
U4443D
U4443F
U4443H
U5221B
U5221D
U5221F
U5221H
U5223B
U5223D
U5223F
U5223H
U5241B
U5241D
U5241F
U5241H
U5243B
U5243D
U5243F
U5243H
U5421B
U5421D
U5421F
U5421H
U5423B
U4223G
U4241A
U4241C
U4241E
U4241G
U4243A
U4243C
U4243E
U4243G
U4421A
U4421C
U4421E
U4421G
U4423A
U4423C
U4423E
U4423G
U4441A
U4441C
U4441E
U4441G
U4443A
U4443C
U4443E
U4443G
U5221A
U5221C
U5221E
U5221G
U5223A
U5223C
U5223E
U5223G
U5241A
U5241C
U5241E
U5241G
U5243A
U5243C
U5243E
U5243G
U5421A
U5421C
U5421E
U5421G
U5423A
U5423C
U4214H
U4232B
U4232D
U4232F
U4232H
U4234B
U4234D
U4234F
U4234H
U4412B
U4412D
U4412F
U4412H
U4414B
U4414D
U4414F
U4414H
U4432B
U4432D
U4432F
U4432H
U4434B
U4434D
U4434F
U4434H
U5212B
U5212D
U5212F
U5212H
U5214B
U5214D
U5214F
U5214H
U5232B
U5232D
U5232F
U5232H
U5234B
U5234D
U5234F
U5234H
U5412B
U5412D
U5412F
U5412H
U5414B
U5414D
U4214E
U4214G
U4232A
U4232C
U4232E
U4232G
U4234A
U4234C
U4234E
U4234G
U4412A
U4412C
U4412E
U4412G
U4414A
U4414C
U4414E
U4414G
U4432A
U4432C
U4432E
U4432G
U4434A
U4434C
U4434E
U4434G
U5212A
U5212C
U5212E
U5212G
U5214A
U5214C
U5214E
U5214G
U5232A
U5232C
U5232E
U5232G
U5234A
U5234C
U5234E
U5234G
U5412A
U5412C
U5412E
U5412G
U5414A
U5414C
U4213F
U4213H
U4231B
U4231D
U4231F
U4231H
U4233B
U4233D
U4233F
U4233H
U4411B
U4411D
U4411F
U4411H
U4413B
U4413D
U4413F
U4413H
U4431B
U4431D
U4431F
U4431H
U4433B
U4433D
U4433F
U4433H
U5211B
U5211D
U5211F
U5211H
U5213B
U5213D
U5213F
U5213H
U5231B
U5231D
U5231F
U5231H
U5233B
U5233D
U5233F
U5233H
U5411B
U5411D
U5411F
U5411H
U5413B
U4213E
U4213G
U4231A
U4231C
U4231E
U4231G
U4233A
U4233C
U4233E
U4233G
U4411A
U4411C
U4411E
U4411G
U4413A
U4413C
U4413E
U4413G
U4431A
U4431C
U4431E
U4431G
U4433A
U4433C
U4433E
U4433G
U5211A
U5211C
U5211E
U5211G
U5213A
U5213C
U5213E
U5213G
U5231A
U5231C
U5231E
U5231G
U5233A
U5233C
U5233E
U5233G
U5411A
U5411C
U5411E
U5411G
U5413A
U4142B
U4142D
U4142F
U4142H
U4144B
U4144D
U4144F
U4144H
U4322B
U4322D
U4322F
U4322H
U4324B
U4324D
U4324F
U4324H
U4342B
U4342D
U4342F
U4342H
U4344B
U4344D
U4344F
U4344H
U5122B
U5122D
U5122F
U5122H
U5124B
U5124D
U5124F
U5124H
U5142B
U5142D
U5142F
U5142H
U5144B
U5144D
U5144F
U5144H
U5322B
U5322D
U5322F
U5322H
U4142A
U4142C
U4142E
U4142G
U4144A
U4144C
U4144E
U4144G
U4322A
U4322C
U4322E
U4322G
U4324A
U4324C
U4324E
U4324G
U4342A
U4342C
U4342E
U4342G
U4344A
U4344C
U4344E
U4344G
U5122A
U5122C
U5122E
U5122G
U5124A
U5124C
U5124E
U5124G
U5142A
U5142C
U5142E
U5142G
U5144A
U5144C
U5144E
U5144G
U5322A
U5322C
U5322E
U5322G
U4123H
U4141B
U4141D
U4141F
U4141H
U4143B
U4143D
U4143F
U4143H
U4321B
U4321D
U4321F
U4321H
U4323B
U4323D
U4323F
U4323H
U4341B
U4341D
U4341F
U4341H
U4343B
U4343D
U4343F
U4343H
U5121B
U5121D
U5121F
U5121H
U5123B
U5123D
U5123F
U5123H
U5141B
U5141D
U5141F
U5141H
U5143B
U5143D
U5143F
U5143H
U5321B
U5321D
U5321F
U4123G
U4141A
U4141C
U4141E
U4141G
U4143A
U4143C
U4143E
U4143G
U4321A
U4321C
U4321E
U4321G
U4323A
U4323C
U4323E
U4323G
U4341A
U4341C
U4341E
U4341G
U4343A
U4343C
U4343E
U4343G
U5121A
U5121C
U5121E
U5121G
U5123A
U5123C
U5123E
U5123G
U5141A
U5141C
U5141E
U5141G
U5143A
U5143C
U5143E
U5143G
U5321A
U5321C
U4114H
U4132B
U4132D
U4132F
U4132H
U4134B
U4134D
U4134F
U4134H
U4312B
U4312D
U4312F
U4312H
U4314B
U4314D
U4314F
U4314H
U4332B
U4332D
U4332F
U4332H
U4334B
U4334D
U4334F
U4334H
U5112B
U5112D
U5112F
U5112H
U5114B
U5114D
U5114F
U5114H
U5132B
U5132D
U5132F
U5132H
U5134B
U5134D
U5134F
U5134H
U5312B
U5312D
U4114G
U4132A
U4132C
U4132E
U4132G
U4134A
U4134C
U4134E
U4134G
U4312A
U4312C
U4312E
U4312G
U4314A
U4314C
U4314E
U4314G
U4332A
U4332C
U4332E
U4332G
U4334A
U4334C
U4334E
U4334G
U5112A
U5112C
U5112E
U5112G
U5114A
U5114C
U5114E
U5114G
U5132A
U5132C
U5132E
U5132G
U5134A
U5134C
U5134E
U5134G
U5312A
U4113H
U4131B
U4131D
U4131F
U4131H
U4133B
U4133D
U4133F
U4133H
U4311B
U4311D
U4311F
U4311H
U4313B
U4313D
U4313F
U4313H
U4331B
U4331D
U4331F
U4331H
U4333B
U4333D
U4333F
U4333H
U5111B
U5111D
U5111F
U5111H
U5113B
U5113D
U5113F
U5113H
U5131B
U5131D
U5131F
U5131H
U5133B
U5133D
U5133F
U5133H
U5311B
U4131A
U4131C
U4131E
U4131G
U4133A
U4133C
U4133E
U4133G
U4311A
U4311C
U4311E
U4311G
U4313A
U4313C
U4313E
U4313G
U4331A
U4331C
U4331E
U4331G
U4333A
U4333C
U4333E
U4333G
U5111A
U5111C
U5111E
U5111G
U5113A
U5113C
U5113E
U5113G
U5131A
U5131C
U5131E
U5131G
U5133A
U5133C
U5133E
U5133G
T4242B
T4242D
T4242F
T4242H
T4244B
T4244D
T4244F
T4244H
T4422B
T4422D
T4422F
T4422H
T4424B
T4424D
T4424F
T4424H
T4442B
T4442D
T4442F
T4442H
T4444B
T4444D
T4444F
T4444H
T5222B
T5222D
T5222F
T5222H
T5224B
T5224D
T5224F
T5224H
T5242B
T5242D
T5242F
T5242H
T5244B
T5244D
T5244F
T5244H
T4242C
T4242E
T4242G
T4244A
T4244C
T4244E
T4244G
T4422A
T4422C
T4422E
T4422G
T4424A
T4424C
T4424E
T4424G
T4442A
T4442C
T4442E
T4442G
T4444A
T4444C
T4444E
T4444G
T5222A
T5222C
T5222E
T5222G
T5224A
T5224C
T5224E
T5224G
T5242A
T5242C
T5242E
T5242G
T5244A
T5244C
T5244E
T4241D
T4241F
T4241H
T4243B
T4243D
T4243F
T4243H
T4421B
T4421D
T4421F
T4421H
T4423B
T4423D
T4423F
T4423H
T4441B
T4441D
T4441F
T4441H
T4443B
T4443D
T4443F
T4443H
T5221B
T5221D
T5221F
T5221H
T5223B
T5223D
T5223F
T5223H
T5241B
T5241D
T5241F
T5241H
T5243B
T5243D
T5243F
T5243H
T4241C
T4241E
T4241G
T4243A
T4243C
T4243E
T4243G
T4421A
T4421C
T4421E
T4421G
T4423A
T4423C
T4423E
T4423G
T4441A
T4441C
T4441E
T4441G
T4443A
T4443C
T4443E
T4443G
T5221A
T5221C
T5221E
T5221G
T5223A
T5223C
T5223E
T5223G
T5241A
T5241C
T5241E
T5241G
T5243A
T5243C
T5243E
T5243G
T4232D
T4232F
T4232H
T4234B
T4234D
T4234F
T4234H
T4412B
T4412D
T4412F
T4412H
T4414B
T4414D
T4414F
T4414H
T4432B
T4432D
T4432F
T4432H
T4434B
T4434D
T4434F
T4434H
T5212B
T5212D
T5212F
T5212H
T5214B
T5214D
T5214F
T5214H
T5232B
T5232D
T5232F
T5232H
T5234B
T5234D
T5234F
T5234H
T5412B
T4232A
T4232C
T4232E
T4232G
T4234A
T4234C
T4234E
T4234G
T4412A
T4412C
T4412E
T4412G
T4414A
T4414C
T4414E
T4414G
T4432A
T4432C
T4432E
T4432G
T4434A
T4434C
T4434E
T4434G
T5212A
T5212C
T5212E
T5212G
T5214A
T5214C
T5214E
T5214G
T5232A
T5232C
T5232E
T5232G
T5234A
T5234C
T5234E
T5234G
T5412A
T4231B
T4231D
T4231F
T4231H
T4233B
T4233D
T4233F
T4233H
T4411B
T4411D
T4411F
T4411H
T4413B
T4413D
T4413F
T4413H
T4431B
T4431D
T4431F
T4431H
T4433B
T4433D
T4433F
T4433H
T5211B
T5211D
T5211F
T5211H
T5213B
T5213D
T5213F
T5213H
T5231B
T5231D
T5231F
T5231H
T5233B
T5233D
T5233F
T5233H
T5411B
T5411D
T4231A
T4231C
T4231E
T4231G
T4233A
T4233C
T4233E
T4233G
T4411A
T4411C
T4411E
T4411G
T4413A
T4413C
T4413E
T4413G
T4431A
T4431C
T4431E
T4431G
T4433A
T4433C
T4433E
T4433G
T5211A
T5211C
T5211E
T5211G
T5213A
T5213C
T5213E
T5213G
T5231A
T5231C
T5231E
T5231G
T5233A
T5233C
T5233E
T5233G
T5411A
T5411C
T4124H
T4142B
T4142D
T4142F
T4142H
T4144B
T4144D
T4144F
T4144H
T4322B
T4322D
T4322F
T4322H
T4324B
T4324D
T4324F
T4324H
T4342B
T4342D
T4342F
T4342H
T4344B
T4344D
T4344F
T4344H
T5122B
T5122D
T5122F
T5122H
T5124B
T5124D
T5124F
T5124H
T5142B
T5142D
T5142F
T5142H
T5144B
T5144D
T5144F
T5144H
T5322B
T5322D
T5322F
T4124G
T4142A
T4142C
T4142E
T4142G
T4144A
T4144C
T4144E
T4144G
T4322A
T4322C
T4322E
T4322G
T4324A
T4324C
T4324E
T4324G
T4342A
T4342C
T4342E
T4342G
T4344A
T4344C
T4344E
T4344G
T5122A
T5122C
T5122E
T5122G
T5124A
T5124C
T5124E
T5124G
T5142A
T5142C
T5142E
T5142G
T5144A
T5144C
T5144E
T5144G
T5322A
T5322C
T5322E
T4123H
T4141B
T4141D
T4141F
T4141H
T4143B
T4143D
T4143F
T4143H
T4321B
T4321D
T4321F
T4321H
T4323B
T4323D
T4323F
T4323H
T4341B
T4341D
T4341F
T4341H
T4343B
T4343D
T4343F
T4343H
T5121B
T5121D
T5121F
T5121H
T5123B
T5123D
T5123F
T5123H
T5141B
T5141D
T5141F
T5141H
T5143B
T5143D
T5143F
T5143H
T5321B
T5321D
T5321F
T5321H
T4123G
T4141A
T4141C
T4141E
T4141G
T4143A
T4143C
T4143E
T4143G
T4321A
T4321C
T4321E
T4321G
T4323A
T4323C
T4323E
T4323G
T4341A
T4341C
T4341E
T4341G
T4343A
T4343C
T4343E
T4343G
T5121A
T5121C
T5121E
T5121G
T5123A
T5123C
T5123E
T5123G
T5141A
T5141C
T5141E
T5141G
T5143A
T5143C
T5143E
T5143G
T5321A
T5321C
T5321E
T5321G
T4114F
T4114H
T4132B
T4132D
T4132F
T4132H
T4134B
T4134D
T4134F
T4134H
T4312B
T4312D
T4312F
T4312H
T4314B
T4314D
T4314F
T4314H
T4332B
T4332D
T4332F
T4332H
T4334B
T4334D
T4334F
T4334H
T5112B
T5112D
T5112F
T5112H
T5114B
T5114D
T5114F
T5114H
T5132B
T5132D
T5132F
T5132H
T5134B
T5134D
T5134F
T5134H
T5312B
T5312D
T5312F
T5312H
T5314B
T4114G
T4132A
T4132C
T4132E
T4132G
T4134A
T4134C
T4134E
T4134G
T4312A
T4312C
T4312E
T4312G
T4314A
T4314C
T4314E
T4314G
T4332A
T4332C
T4332E
T4332G
T4334A
T4334C
T4334E
T4334G
T5112A
T5112C
T5112E
T5112G
T5114A
T5114C
T5114E
T5114G
T5132A
T5132C
T5132E
T5132G
T5134A
T5134C
T5134E
T5134G
T5312A
T5312C
T5312E
T5312G
T5314A
T4113H
T4131B
T4131D
T4131F
T4131H
T4133B
T4133D
T4133F
T4133H
T4311B
T4311D
T4311F
T4311H
T4313B
T4313D
T4313F
T4313H
T4331B
T4331D
T4331F
T4331H
T4333B
T4333D
T4333F
T4333H
T5111B
T5111D
T5111F
T5111H
T5113B
T5113D
T5113F
T5113H
T5131B
T5131D
T5131F
T5131H
T5133B
T5133D
T5133F
T5133H
T5311B
T5311D
T5311F
T5311H
T5313B
T5313D
T4113G
T4131A
T4131C
T4131E
T4131G
T4133A
T4133C
T4133E
T4133G
T4311A
T4311C
T4311E
T4311G
T4313A
T4313C
T4313E
T4313G
T4331A
T4331C
T4331E
T4331G
T4333A
T4333C
T4333E
T4333G
T5111A
T5111C
T5111E
T5111G
T5113A
T5113C
T5113E
T5113G
T5131A
T5131C
T5131E
T5131G
T5133A
T5133C
T5133E
T5133G
T5311A
T5311C
T5311E
T5311G
T5313A
T5313C
S4242B
S4242D
S4242F
S4242H
S4244B
S4244D
S4244F
S4244H
S4422B
S4422D
S4422F
S4422H
S4424B
S4424D
S4424F
S4424H
S4442B
S4442D
S4442F
S4442H
S4444B
S4444D
S4444F
S4444H
S5222B
S5222D
S5222F
S5222H
S5224B
S5224D
S5224F
S5224H
S5242B
S5242D
S5242F
S5242H
S5244B
S5244D
S5244F
S5244H
S5422B
S5422D
S5422F
S5422H
S5424B
S5424D
S5424F
S4242A
S4242C
S4242E
S4242G
S4244A
S4244C
S4244E
S4244G
S4422A
S4422C
S4422E
S4422G
S4424A
S4424C
S4424E
S4424G
S4442A
S4442C
S4442E
S4442G
S4444A
S4444C
S4444E
S4444G
S5222A
S5222C
S5222E
S5222G
S5224A
S5224C
S5224E
S5224G
S5242A
S5242C
S5242E
S5242G
S5244A
S5244C
S5244E
S5244G
S5422A
S5422C
S5422E
S5422G
S5424A
S5424C
S5424E
S4241D
S4241F
S4241H
S4243B
S4243D
S4243F
S4243H
S4421B
S4421D
S4421F
S4421H
S4423B
S4423D
S4423F
S4423H
S4441B
S4441D
S4441F
S4441H
S4443B
S4443D
S4443F
S4443H
S5221B
S5221D
S5221F
S5221H
S5223B
S5223D
S5223F
S5223H
S5241B
S5241D
S5241F
S5241H
S5243B
S5243D
S5243F
S5243H
S5421B
S5421D
S5421F
S5421H
S5423B
S5423D
S5423F
S4241C
S4241E
S4241G
S4243A
S4243C
S4243E
S4243G
S4421A
S4421C
S4421E
S4421G
S4423A
S4423C
S4423E
S4423G
S4441A
S4441C
S4441E
S4441G
S4443A
S4443C
S4443E
S4443G
S5221A
S5221C
S5221E
S5221G
S5223A
S5223C
S5223E
S5223G
S5241A
S5241C
S5241E
S5241G
S5243A
S5243C
S5243E
S5243G
S5421A
S5421C
S5421E
S5421G
S5423A
S5423C
S5423E
S5423G
S4232F
S4232H
S4234B
S4234D
S4234F
S4234H
S4412B
S4412D
S4412F
S4412H
S4414B
S4414D
S4414F
S4414H
S4432B
S4432D
S4432F
S4432H
S4434B
S4434D
S4434F
S4434H
S5212B
S5212D
S5212F
S5212H
S5214B
S5214D
S5214F
S5214H
S5232B
S5232D
S5232F
S5232H
S5234B
S5234D
S5234F
S5234H
S5412B
S5412D
S5412F
S5412H
S5414B
S5414D
S5414F
S5414H
S4232E
S4232G
S4234A
S4234C
S4234E
S4234G
S4412A
S4412C
S4412E
S4412G
S4414A
S4414C
S4414E
S4414G
S4432A
S4432C
S4432E
S4432G
S4434A
S4434C
S4434E
S4434G
S5212A
S5212C
S5212E
S5212G
S5214A
S5214C
S5214E
S5214G
S5232A
S5232C
S5232E
S5232G
S5234A
S5234C
S5234E
S5234G
S5412A
S5412C
S5412E
S5412G
S5414A
S5414C
S5414E
S5414G
S4231F
S4231H
S4233B
S4233D
S4233F
S4233H
S4411B
S4411D
S4411F
S4411H
S4413B
S4413D
S4413F
S4413H
S4431B
S4431D
S4431F
S4431H
S4433B
S4433D
S4433F
S4433H
S5211B
S5211D
S5211F
S5211H
S5213B
S5213D
S5213F
S5213H
S5231B
S5231D
S5231F
S5231H
S5233B
S5233D
S5233F
S5233H
S5411B
S5411D
S5411F
S5411H
S5413B
S5413D
S5413F
S5413H
S4231E
S4231G
S4233A
S4233C
S4233E
S4233G
S4411A
S4411C
S4411E
S4411G
S4413A
S4413C
S4413E
S4413G
S4431A
S4431C
S4431E
S4431G
S4433A
S4433C
S4433E
S4433G
S5211A
S5211C
S5211E
S5211G
S5213A
S5213C
S5213E
S5213G
S5231A
S5231C
S5231E
S5231G
S5233A
S5233C
S5233E
S5233G
S5411A
S5411C
S5411E
S5411G
S5413A
S5413C
S5413E
S5413G
S4142F
S4142H
S4144B
S4144D
S4144F
S4144H
S4322B
S4322D
S4322F
S4322H
S4324B
S4324D
S4324F
S4324H
S4342B
S4342D
S4342F
S4342H
S4344B
S4344D
S4344F
S4344H
S5122B
S5122D
S5122F
S5122H
S5124B
S5124D
S5124F
S5124H
S5142B
S5142D
S5142F
S5142H
S5144B
S5144D
S5144F
S5144H
S5322B
S5322D
S5322F
S5322H
S5324B
S5324D
S5324F
S5324H
S5342B
S4142E
S4142G
S4144A
S4144C
S4144E
S4144G
S4322A
S4322C
S4322E
S4322G
S4324A
S4324C
S4324E
S4324G
S4342A
S4342C
S4342E
S4342G
S4344A
S4344C
S4344E
S4344G
S5122A
S5122C
S5122E
S5122G
S5124A
S5124C
S5124E
S5124G
S5142A
S5142C
S5142E
S5142G
S5144A
S5144C
S5144E
S5144G
S5322A
S5322C
S5322E
S5322G
S5324A
S5324C
S4141D
S4141F
S4141H
S4143B
S4143D
S4143F
S4143H
S4321B
S4321D
S4321F
S4321H
S4323B
S4323D
S4323F
S4323H
S4341B
S4341D
S4341F
S4341H
S4343B
S4343D
S4343F
S4343H
S5121B
S5121D
S5121F
S5121H
S5123B
S5123D
S5123F
S5123H
S5141B
S5141D
S5141F
S5141H
S5143B
S5143D
S5143F
S5143H
S5321B
S5321D
S5321F
S5321H
S5323B
S5323D
S5323F
S4141C
S4141E
S4141G
S4143A
S4143C
S4143E
S4143G
S4321A
S4321C
S4321E
S4321G
S4323A
S4323C
S4323E
S4323G
S4341A
S4341C
S4341E
S4341G
S4343A
S4343C
S4343E
S4343G
S5121A
S5121C
S5121E
S5121G
S5123A
S5123C
S5123E
S5123G
S5141A
S5141C
S5141E
S5141G
S5143A
S5143C
S5143E
S5143G
S5321A
S5321C
S5321E
S5321G
S5323A
S5323C
S4132D
S4132F
S4132H
S4134B
S4134D
S4134F
S4134H
S4312B
S4312D
S4312F
S4312H
S4314B
S4314D
S4314F
S4314H
S4332B
S4332D
S4332F
S4332H
S4334B
S4334D
S4334F
S4334H
S5112B
S5112D
S5112F
S5112H
S5114B
S5114D
S5114F
S5114H
S5132B
S5132D
S5132F
S5132H
S5134B
S5134D
S5134F
S5134H
S5312B
S5312D
S5312F
S5312H
S5314B
S5314D
S4132C
S4132E
S4132G
S4134A
S4134C
S4134E
S4134G
S4312A
S4312C
S4312E
S4312G
S4314A
S4314C
S4314E
S4314G
S4332A
S4332C
S4332E
S4332G
S4334A
S4334C
S4334E
S4334G
S5112A
S5112C
S5112E
S5112G
S5114A
S5114C
S5114E
S5114G
S5132A
S5132C
S5132E
S5132G
S5134A
S5134C
S5134E
S5134G
S5312A
S5312C
S5312E
S5312G
S5314A
S5314C
S4131D
S4131F
S4131H
S4133B
S4133D
S4133F
S4133H
S4311B
S4311D
S4311F
S4311H
S4313B
S4313D
S4313F
S4313H
S4331B
S4331D
S4331F
S4331H
S4333B
S4333D
S4333F
S4333H
S5111B
S5111D
S5111F
S5111H
S5113B
S5113D
S5113F
S5113H
S5131B
S5131D
S5131F
S5131H
S5133B
S5133D
S5133F
S5133H
S5311B
S5311D
S5311F
S5311H
S5313B
S5313D
S4131C
S4131E
S4131G
S4133A
S4133C
S4133E
S4133G
S4311A
S4311C
S4311E
S4311G
S4313A
S4313C
S4313E
S4313G
S4331A
S4331C
S4331E
S4331G
S4333A
S4333C
S4333E
S4333G
S5111A
S5111C
S5111E
S5111G
S5113A
S5113C
S5113E
S5113G
S5131A
S5131C
S5131E
S5131G
S5133A
S5133C
S5133E
S5133G
S5311A
S5311C
S5311E
S5311G
S5313A
S5313C
R4242D
R4242F
R4242H
R4244B
R4244D
R4244F
R4244H
R4422B
R4422D
R4422F
R4422H
R4424B
R4424D
R4424F
R4424H
R4442B
R4442D
R4442F
R4442H
R4444B
R4444D
R4444F
R4444H
R5222B
R5222D
R5222F
R5222H
R5224B
R5224D
R5224F
R5224H
R5242B
R5242D
R5242F
R5242H
R5244B
R5244D
R5244F
R5244H
R5422B
R5422D
R5422F
R5422H
R5424B
R5424D
R5424F
R4242C
R4242E
R4242G
R4244A
R4244C
R4244E
R4244G
R4422A
R4422C
R4422E
R4422G
R4424A
R4424C
R4424E
R4424G
R4442A
R4442C
R4442E
R4442G
R4444A
R4444C
R4444E
R4444G
R5222A
R5222C
R5222E
R5222G
R5224A
R5224C
R5224E
R5224G
R5242A
R5242C
R5242E
R5242G
R5244A
R5244C
R5244E
R5244G
R5422A
R5422C
R5422E
R5422G
R5424A
R5424C
R5424E
R4241D
R4241F
R4241H
R4243B
R4243D
R4243F
R4243H
R4421B
R4421D
R4421F
R4421H
R4423B
R4423D
R4423F
R4423H
R4441B
R4441D
R4441F
R4441H
R4443B
R4443D
R4443F
R4443H
R5221B
R5221D
R5221F
R5221H
R5223B
R5223D
R5223F
R5223H
R5241B
R5241D
R5241F
R5241H
R5243B
R5243D
R5243F
R5243H
R5421B
R5421D
R5421F
R5421H
R5423B
R5423D
R5423F
R4241C
R4241E
R4241G
R4243A
R4243C
R4243E
R4243G
R4421A
R4421C
R4421E
R4421G
R4423A
R4423C
R4423E
R4423G
R4441A
R4441C
R4441E
R4441G
R4443A
R4443C
R4443E
R4443G
R5221A
R5221C
R5221E
R5221G
R5223A
R5223C
R5223E
R5223G
R5241A
R5241C
R5241E
R5241G
R5243A
R5243C
R5243E
R5243G
R5421A
R5421C
R5421E
R5421G
R5423A
R5423C
R5423E
R4232B
R4232D
R4232F
R4232H
R4234B
R4234D
R4234F
R4234H
R4412B
R4412D
R4412F
R4412H
R4414B
R4414D
R4414F
R4414H
R4432B
R4432D
R4432F
R4432H
R4434B
R4434D
R4434F
R4434H
R5212B
R5212D
R5212F
R5212H
R5214B
R5214D
R5214F
R5214H
R5232B
R5232D
R5232F
R5232H
R5234B
R5234D
R5234F
R5234H
R5412B
R5412D
R5412F
R5412H
R5414B
R4232A
R4232C
R4232E
R4232G
R4234A
R4234C
R4234E
R4234G
R4412A
R4412C
R4412E
R4412G
R4414A
R4414C
R4414E
R4414G
R4432A
R4432C
R4432E
R4432G
R4434A
R4434C
R4434E
R4434G
R5212A
R5212C
R5212E
R5212G
R5214A
R5214C
R5214E
R5214G
R5232A
R5232C
R5232E
R5232G
R5234A
R5234C
R5234E
R5234G
R5412A
R5412C
R5412E
R5412G
R5414A
R4231B
R4231D
R4231F
R4231H
R4233B
R4233D
R4233F
R4233H
R4411B
R4411D
R4411F
R4411H
R4413B
R4413D
R4413F
R4413H
R4431B
R4431D
R4431F
R4431H
R4433B
R4433D
R4433F
R4433H
R5211B
R5211D
R5211F
R5211H
R5213B
R5213D
R5213F
R5213H
R5231B
R5231D
R5231F
R5231H
R5233B
R5233D
R5233F
R5233H
R5411B
R5411D
R5411F
R5411H
R5413B
R4213G
R4231A
R4231C
R4231E
R4231G
R4233A
R4233C
R4233E
R4233G
R4411A
R4411C
R4411E
R4411G
R4413A
R4413C
R4413E
R4413G
R4431A
R4431C
R4431E
R4431G
R4433A
R4433C
R4433E
R4433G
R5211A
R5211C
R5211E
R5211G
R5213A
R5213C
R5213E
R5213G
R5231A
R5231C
R5231E
R5231G
R5233A
R5233C
R5233E
R5233G
R5411A
R5411C
R5411E
R5411G
R5413A
R5413C
R4124H
R4142B
R4142D
R4142F
R4142H
R4144B
R4144D
R4144F
R4144H
R4322B
R4322D
R4322F
R4322H
R4324B
R4324D
R4324F
R4324H
R4342B
R4342D
R4342F
R4342H
R4344B
R4344D
R4344F
R4344H
R5122B
R5122D
R5122F
R5122H
R5124B
R5124D
R5124F
R5124H
R5142B
R5142D
R5142F
R5142H
R5144B
R5144D
R5144F
R5144H
R5322B
R5322D
R5322F
R5322H
R5324B
R5324D
R5324F
R5324H
R5342B
R4124G
R4142A
R4142C
R4142E
R4142G
R4144A
R4144C
R4144E
R4144G
R4322A
R4322C
R4322E
R4322G
R4324A
R4324C
R4324E
R4324G
R4342A
R4342C
R4342E
R4342G
R4344A
R4344C
R4344E
R4344G
R5122A
R5122C
R5122E
R5122G
R5124A
R5124C
R5124E
R5124G
R5142A
R5142C
R5142E
R5142G
R5144A
R5144C
R5144E
R5144G
R5322A
R5322C
R5322E
R5322G
R5324A
R5324C
R5324E
R5324G
R5342A
R4123F
R4123H
R4141B
R4141D
R4141F
R4141H
R4143B
R4143D
R4143F
R4143H
R4321B
R4321D
R4321F
R4321H
R4323B
R4323D
R4323F
R4323H
R4341B
R4341D
R4341F
R4341H
R4343B
R4343D
R4343F
R4343H
R5121B
R5121D
R5121F
R5121H
R5123B
R5123D
R5123F
R5123H
R5141B
R5141D
R5141F
R5141H
R5143B
R5143D
R5143F
R5143H
R5321B
R5321D
R5321F
R5321H
R5323B
R5323D
R5323F
R5323H
R5341B
R4123C
R4123E
R4123G
R4141A
R4141C
R4141E
R4141G
R4143A
R4143C
R4143E
R4143G
R4321A
R4321C
R4321E
R4321G
R4323A
R4323C
R4323E
R4323G
R4341A
R4341C
R4341E
R4341G
R4343A
R4343C
R4343E
R4343G
R5121A
R5121C
R5121E
R5121G
R5123A
R5123C
R5123E
R5123G
R5141A
R5141C
R5141E
R5141G
R5143A
R5143C
R5143E
R5143G
R5321A
R5321C
R5321E
R5321G
R5323A
R5323C
R5323E
R5323G
R5341A
R4112H
R4114B
R4114D
R4114F
R4114H
R4132B
R4132D
R4132F
R4132H
R4134B
R4134D
R4134F
R4134H
R4312B
R4312D
R4312F
R4312H
R4314B
R4314D
R4314F
R4314H
R4332B
R4332D
R4332F
R4332H
R4334B
R4334D
R4334F
R4334H
R5112B
R5112D
R5112F
R5112H
R5114B
R5114D
R5114F
R5114H
R5132B
R5132D
R5132F
R5132H
R5134B
R5134D
R5134F
R5134H
R5312B
R5312D
R5312F
R5312H
R5314B
R5314D
R5314F
R5314H
R5332B
R4112C
R4112E
R4112G
R4114A
R4114C
R4114E
R4114G
R4132A
R4132C
R4132E
R4132G
R4134A
R4134C
R4134E
R4134G
R4312A
R4312C
R4312E
R4312G
R4314A
R4314C
R4314E
R4314G
R4332A
R4332C
R4332E
R4332G
R4334A
R4334C
R4334E
R4334G
R5112A
R5112C
R5112E
R5112G
R5114A
R5114C
R5114E
R5114G
R5132A
R5132C
R5132E
R5132G
R5134A
R5134C
R5134E
R5134G
R5312A
R5312C
R5312E
R5312G
R5314A
R5314C
R5314E
R5314G
R5332A
R4111B
R4111D
R4111F
R4111H
R4113B
R4113D
R4113F
R4113H
R4131B
R4131D
R4131F
R4131H
R4133B
R4133D
R4133F
R4133H
R4311B
R4311D
R4311F
R4311H
R4313B
R4313D
R4313F
R4313H
R4331B
R4331D
R4331F
R4331H
R4333B
R4333D
R4333F
R4333H
R5111B
R5111D
R5111F
R5111H
R5113B
R5113D
R5113F
R5113H
R5131B
R5131D
R5131F
R5131H
R5133B
R5133D
R5133F
R5133H
R5311B
R5311D
R5311F
R5311H
R5313B
R5313D
R5313F
R5313H
R5331B
R3333G
R4111A
R4111C
R4111E
R4111G
R4113A
R4113C
R4113E
R4113G
R4131A
R4131C
R4131E
R4131G
R4133A
R4133C
R4133E
R4133G
R4311A
R4311C
R4311E
R4311G
R4313A
R4313C
R4313E
R4313G
R4331A
R4331C
R4331E
R4331G
R4333A
R4333C
R4333E
R4333G
R5111A
R5111C
R5111E
R5111G
R5113A
R5113C
R5113E
R5113G
R5131A
R5131C
R5131E
R5131G
R5133A
R5133C
R5133E
R5133G
R5311A
R5311C
R5311E
R5311G
R5313A
R5313C
R5313E
R5313G
R5331A
Q3444H
Q4222B
Q4222D
Q4222F
Q4222H
Q4224B
Q4224D
Q4224F
Q4224H
Q4242B
Q4242D
Q4242F
Q4242H
Q4244B
Q4244D
Q4244F
Q4244H
Q4422B
Q4422D
Q4422F
Q4422H
Q4424B
Q4424D
Q4424F
Q4424H
Q4442B
Q4442D
Q4442F
Q4442H
Q4444B
Q4444D
Q4444F
Q4444H
Q5222B
Q5222D
Q5222F
Q5222H
Q5224B
Q5224D
Q5224F
Q5224H
Q5242B
Q5242D
Q5242F
Q5242H
Q5244B
Q5244D
Q5244F
Q5244H
Q5422B
Q5422D
Q5422F
Q5422H
Q5424B
Q5424D
Q5424F
Q5424H
Q5442B
Q5442D
Q3444G
Q4222A
Q4222C
Q4222E
Q4222G
Q4224A
Q4224C
Q4224E
Q4224G
Q4242A
Q4242C
Q4242E
Q4242G
Q4244A
Q4244C
Q4244E
Q4244G
Q4422A
Q4422C
Q4422E
Q4422G
Q4424A
Q4424C
Q4424E
Q4424G
Q4442A
Q4442C
Q4442E
Q4442G
Q4444A
Q4444C
Q4444E
Q4444G
Q5222A
Q5222C
Q5222E
Q5222G
Q5224A
Q5224C
Q5224E
Q5224G
Q5242A
Q5242C
Q5242E
Q5242G
Q5244A
Q5244C
Q5244E
Q5244G
Q5422A
Q5422C
Q5422E
Q5422G
Q5424A
Q5424C
Q5424E
Q5424G
Q5442A
Q5442C
Q5442E
Q5442G
Q3443H
Q4221B
Q4221D
Q4221F
Q4221H
Q4223B
Q4223D
Q4223F
Q4223H
Q4241B
Q4241D
Q4241F
Q4241H
Q4243B
Q4243D
Q4243F
Q4243H
Q4421B
Q4421D
Q4421F
Q4421H
Q4423B
Q4423D
Q4423F
Q4423H
Q4441B
Q4441D
Q4441F
Q4441H
Q4443B
Q4443D
Q4443F
Q4443H
Q5221B
Q5221D
Q5221F
Q5221H
Q5223B
Q5223D
Q5223F
Q5223H
Q5241B
Q5241D
Q5241F
Q5241H
Q5243B
Q5243D
Q5243F
Q5243H
Q5421B
Q5421D
Q5421F
Q5421H
Q5423B
Q5423D
Q5423F
Q5423H
Q5441B
Q5441D
Q5441F
Q5441H
Q5443B
Q3443C
Q3443E
Q3443G
Q4221A
Q4221C
Q4221E
Q4221G
Q4223A
Q4223C
Q4223E
Q4223G
Q4241A
Q4241C
Q4241E
Q4241G
Q4243A
Q4243C
Q4243E
Q4243G
Q4421A
Q4421C
Q4421E
Q4421G
Q4423A
Q4423C
Q4423E
Q4423G
Q4441A
Q4441C
Q4441E
Q4441G
Q4443A
Q4443C
Q4443E
Q4443G
Q5221A
Q5221C
Q5221E
Q5221G
Q5223A
Q5223C
Q5223E
Q5223G
Q5241A
Q5241C
Q5241E
Q5241G
Q5243A
Q5243C
Q5243E
Q5243G
Q5421A
Q5421C
Q5421E
Q5421G
Q5423A
Q5423C
Q5423E
Q5423G
Q5441A
Q5441C
Q5441E
Q5441G
Q5443A
Q3432H
Q3434B
Q3434D
Q3434F
Q3434H
Q4212B
Q4212D
Q4212F
Q4212H
Q4214B
Q4214D
Q4214F
Q4214H
Q4232B
Q4232D
Q4232F
Q4232H
Q4234B
Q4234D
Q4234F
Q4234H
Q4412B
Q4412D
Q4412F
Q4412H
Q4414B
Q4414D
Q4414F
Q4414H
Q4432B
Q4432D
Q4432F
Q4432H
Q4434B
Q4434D
Q4434F
Q4434H
Q5212B
Q5212D
Q5212F
Q5212H
Q5214B
Q5214D
Q5214F
Q5214H
Q5232B
Q5232D
Q5232F
Q5232H
Q5234B
Q5234D
Q5234F
Q5234H
Q5412B
Q5412D
Q5412F
Q5412H
Q5414B
Q5414D
Q5414F
Q5414H
Q5432B
Q5432D
Q5432F
Q5432H
Q5434B
Q3432E
Q3432G
Q3434A
Q3434C
Q3434E
Q3434G
Q4212A
Q4212C
Q4212E
Q4212G
Q4214A
Q4214C
Q4214E
Q4214G
Q4232A
Q4232C
Q4232E
Q4232G
Q4234A
Q4234C
Q4234E
Q4234G
Q4412A
Q4412C
Q4412E
Q4412G
Q4414A
Q4414C
Q4414E
Q4414G
Q4432A
Q4432C
Q4432E
Q4432G
Q4434A
Q4434C
Q4434E
Q4434G
Q5212A
Q5212C
Q5212E
Q5212G
Q5214A
Q5214C
Q5214E
Q5214G
Q5232A
Q5232C
Q5232E
Q5232G
Q5234A
Q5234C
Q5234E
Q5234G
Q5412A
Q5412C
Q5412E
Q5412G
Q5414A
Q5414C
Q5414E
Q5414G
Q5432A
Q5432C
Q5432E
Q5432G
Q5434A
Q3431D
Q3431F
Q3431H
Q3433B
Q3433D
Q3433F
Q3433H
Q4211B
Q4211D
Q4211F
Q4211H
Q4213B
Q4213D
Q4213F
Q4213H
Q4231B
Q4231D
Q4231F
Q4231H
Q4233B
Q4233D
Q4233F
Q4233H
Q4411B
Q4411D
Q4411F
Q4411H
Q4413B
Q4413D
Q4413F
Q4413H
Q4431B
Q4431D
Q4431F
Q4431H
Q4433B
Q4433D
Q4433F
Q4433H
Q5211B
Q5211D
Q5211F
Q5211H
Q5213B
Q5213D
Q5213F
Q5213H
Q5231B
Q5231D
Q5231F
Q5231H
Q5233B
Q5233D
Q5233F
Q5233H
Q5411B
Q5411D
Q5411F
Q5411H
Q5413B
Q5413D
Q5413F
Q5413H
Q5431B
Q5431D
Q5431F
Q5431H
Q5433B
Q3431A
Q3431C
Q3431E
Q3431G
Q3433A
Q3433C
Q3433E
Q3433G
Q4211A
Q4211C
Q4211E
Q4211G
Q4213A
Q4213C
Q4213E
Q4213G
Q4231A
Q4231C
Q4231E
Q4231G
Q4233A
Q4233C
Q4233E
Q4233G
Q4411A
Q4411C
Q4411E
Q4411G
Q4413A
Q4413C
Q4413E
Q4413G
Q4431A
Q4431C
Q4431E
Q4431G
Q4433A
Q4433C
Q4433E
Q4433G
Q5211A
Q5211C
Q5211E
Q5211G
Q5213A
Q5213C
Q5213E
Q5213G
Q5231A
Q5231C
Q5231E
Q5231G
Q5233A
Q5233C
Q5233E
Q5233G
Q5411A
Q5411C
Q5411E
Q5411G
Q5413A
Q5413C
Q5413E
Q5413G
Q5431A
Q5431C
Q5431E
Q5431G
Q5433A
Q3342B
Q3342D
Q3342F
Q3342H
Q3344B
Q3344D
Q3344F
Q3344H
Q4122B
Q4122D
Q4122F
Q4122H
Q4124B
Q4124D
Q4124F
Q4124H
Q4142B
Q4142D
Q4142F
Q4142H
Q4144B
Q4144D
Q4144F
Q4144H
Q4322B
Q4322D
Q4322F
Q4322H
Q4324B
Q4324D
Q4324F
Q4324H
Q4342B
Q4342D
Q4342F
Q4342H
Q4344B
Q4344D
Q4344F
Q4344H
Q5122B
Q5122D
Q5122F
Q5122H
Q5124B
Q5124D
Q5124F
Q5124H
Q5142B
Q5142D
Q5142F
Q5142H
Q5144B
Q5144D
Q5144F
Q5144H
Q5322B
Q5322D
Q5322F
Q5322H
Q5324B
Q5324D
Q5324F
Q5324H
Q5342B
Q5342D
Q5342F
Q5342H
Q3324G
Q3342A
Q3342C
Q3342E
Q3342G
Q3344A
Q3344C
Q3344E
Q3344G
Q4122A
Q4122C
Q4122E
Q4122G
Q4124A
Q4124C
Q4124E
Q4124G
Q4142A
Q4142C
Q4142E
Q4142G
Q4144A
Q4144C
Q4144E
Q4144G
Q4322A
Q4322C
Q4322E
Q4322G
Q4324A
Q4324C
Q4324E
Q4324G
Q4342A
Q4342C
Q4342E
Q4342G
Q4344A
Q4344C
Q4344E
Q4344G
Q5122A
Q5122C
Q5122E
Q5122G
Q5124A
Q5124C
Q5124E
Q5124G
Q5142A
Q5142C
Q5142E
Q5142G
Q5144A
Q5144C
Q5144E
Q5144G
Q5322A
Q5322C
Q5322E
Q5322G
Q5324A
Q5324C
Q5324E
Q5324G
Q5342A
Q5342C
Q5342E
Q5342G
Q3323F
Q3323H
Q3341B
Q3341D
Q3341F
Q3341H
Q3343B
Q3343D
Q3343F
Q3343H
Q4121B
Q4121D
Q4121F
Q4121H
Q4123B
Q4123D
Q4123F
Q4123H
Q4141B
Q4141D
Q4141F
Q4141H
Q4143B
Q4143D
Q4143F
Q4143H
Q4321B
Q4321D
Q4321F
Q4321H
Q4323B
Q4323D
Q4323F
Q4323H
Q4341B
Q4341D
Q4341F
Q4341H
Q4343B
Q4343D
Q4343F
Q4343H
Q5121B
Q5121D
Q5121F
Q5121H
Q5123B
Q5123D
Q5123F
Q5123H
Q5141B
Q5141D
Q5141F
Q5141H
Q5143B
Q5143D
Q5143F
Q5143H
Q5321B
Q5321D
Q5321F
Q5321H
Q5323B
Q5323D
Q5323F
Q5323H
Q5341B
Q5341D
Q5341F
Q3323C
Q3323E
Q3323G
Q3341A
Q3341C
Q3341E
Q3341G
Q3343A
Q3343C
Q3343E
Q3343G
Q4121A
Q4121C
Q4121E
Q4121G
Q4123A
Q4123C
Q4123E
Q4123G
Q4141A
Q4141C
Q4141E
Q4141G
Q4143A
Q4143C
Q4143E
Q4143G
Q4321A
Q4321C
Q4321E
Q4321G
Q4323A
Q4323C
Q4323E
Q4323G
Q4341A
Q4341C
Q4341E
Q4341G
Q4343A
Q4343C
Q4343E
Q4343G
Q5121A
Q5121C
Q5121E
Q5121G
Q5123A
Q5123C
Q5123E
Q5123G
Q5141A
Q5141C
Q5141E
Q5141G
Q5143A
Q5143C
Q5143E
Q5143G
Q5321A
Q5321C
Q5321E
Q5321G
Q5323A
Q5323C
Q5323E
Q5323G
Q5341A
Q5341C
Q5341E
Q3312D
Q3312F
Q3312H
Q3314B
Q3314D
Q3314F
Q3314H
Q3332B
Q3332D
Q3332F
Q3332H
Q3334B
Q3334D
Q3334F
Q3334H
Q4112B
Q4112D
Q4112F
Q4112H
Q4114B
Q4114D
Q4114F
Q4114H
Q4132B
Q4132D
Q4132F
Q4132H
Q4134B
Q4134D
Q4134F
Q4134H
Q4312B
Q4312D
Q4312F
Q4312H
Q4314B
Q4314D
Q4314F
Q4314H
Q4332B
Q4332D
Q4332F
Q4332H
Q4334B
Q4334D
Q4334F
Q4334H
Q5112B
Q5112D
Q5112F
Q5112H
Q5114B
Q5114D
Q5114F
Q5114H
Q5132B
Q5132D
Q5132F
Q5132H
Q5134B
Q5134D
Q5134F
Q5134H
Q5312B
Q5312D
Q5312F
Q5312H
Q5314B
Q5314D
Q5314F
Q5314H
Q5332B
Q5332D
Q3134G
Q3312A
Q3312C
Q3312E
Q3312G
Q3314A
Q3314C
Q3314E
Q3314G
Q3332A
Q3332C
Q3332E
Q3332G
Q3334A
Q3334C
Q3334E
Q3334G
Q4112A
Q4112C
Q4112E
Q4112G
Q4114A
Q4114C
Q4114E
Q4114G
Q4132A
Q4132C
Q4132E
Q4132G
Q4134A
Q4134C
Q4134E
Q4134G
Q4312A
Q4312C
Q4312E
Q4312G
Q4314A
Q4314C
Q4314E
Q4314G
Q4332A
Q4332C
Q4332E
Q4332G
Q4334A
Q4334C
Q4334E
Q4334G
Q5112A
Q5112C
Q5112E
Q5112G
Q5114A
Q5114C
Q5114E
Q5114G
Q5132A
Q5132C
Q5132E
Q5132G
Q5134A
Q5134C
Q5134E
Q5134G
Q5312A
Q5312C
Q5312E
Q5312G
Q5314A
Q5314C
Q5314E
Q5314G
Q5332A
Q5332C
Q5332E
Q3133B
Q3133D
Q3133F
Q3133H
Q3311B
Q3311D
Q3311F
Q3311H
Q3313B
Q3313D
Q3313F
Q3313H
Q3331B
Q3331D
Q3331F
Q3331H
Q3333B
Q3333D
Q3333F
Q3333H
Q4111B
Q4111D
Q4111F
Q4111H
Q4113B
Q4113D
Q4113F
Q4113H
Q4131B
Q4131D
Q4131F
Q4131H
Q4133B
Q4133D
Q4133F
Q4133H
Q4311B
Q4311D
Q4311F
Q4311H
Q4313B
Q4313D
Q4313F
Q4313H
Q4331B
Q4331D
Q4331F
Q4331H
Q4333B
Q4333D
Q4333F
Q4333H
Q5111B
Q5111D
Q5111F
Q5111H
Q5113B
Q5113D
Q5113F
Q5113H
Q5131B
Q5131D
Q5131F
Q5131H
Q5133B
Q5133D
Q5133F
Q5133H
Q5311B
Q5311D
Q5311F
Q5311H
Q5313B
Q5313D
Q5313F
Q5313H
Q5331B
Q5331D
Q5331F
Q3131E
Q3131G
Q3133A
Q3133C
Q3133E
Q3133G
Q3311A
Q3311C
Q3311E
Q3311G
Q3313A
Q3313C
Q3313E
Q3313G
Q3331A
Q3331C
Q3331E
Q3331G
Q3333A
Q3333C
Q3333E
Q3333G
Q4111A
Q4111C
Q4111E
Q4111G
Q4113A
Q4113C
Q4113E
Q4113G
Q4131A
Q4131C
Q4131E
Q4131G
Q4133A
Q4133C
Q4133E
Q4133G
Q4311A
Q4311C
Q4311E
Q4311G
Q4313A
Q4313C
Q4313E
Q4313G
Q4331A
Q4331C
Q4331E
Q4331G
Q4333A
Q4333C
Q4333E
Q4333G
Q5111A
Q5111C
Q5111E
Q5111G
Q5113A
Q5113C
Q5113E
Q5113G
Q5131A
Q5131C
Q5131E
Q5131G
Q5133A
Q5133C
Q5133E
Q5133G
Q5311A
Q5311C
Q5311E
Q5311G
Q5313A
Q5313C
Q5313E
Q5313G
Q5331A
Q5331C
Q5331E
Q5331G
Q5333A
P3242D
P3242F
P3242H
P3244B
P3244D
P3244F
P3244H
P3422B
P3422D
P3422F
P3422H
P3424B
P3424D
P3424F
P3424H
P3442B
P3442D
P3442F
P3442H
P3444B
P3444D
P3444F
P3444H
P4222B
P4222D
P4222F
P4222H
P4224B
P4224D
P4224F
P4224H
P4242B
P4242D
P4242F
P4242H
P4244B
P4244D
P4244F
P4244H
P4422B
P4422D
P4422F
P4422H
P4424B
P4424D
P4424F
P4424H
P4442B
P4442D
P4442F
P4442H
P4444B
P4444D
P4444F
P4444H
P5222B
P5222D
P5222F
P5222H
P5224B
P5224D
P5224F
P5224H
P5242B
P5242D
P5242F
P5242H
P5244B
P5244D
P5244F
P5244H
P5422B
P5422D
P5422F
P5422H
P5424B
P5424D
P5424F
P5424H
P5442B
P5442D
P5442F
P5442H
P5444B
P3242A
P3242C
P3242E
P3242G
P3244A
P3244C
P3244E
P3244G
P3422A
P3422C
P3422E
P3422G
P3424A
P3424C
P3424E
P3424G
P3442A
P3442C
P3442E
P3442G
P3444A
P3444C
P3444E
P3444G
P4222A
P4222C
P4222E
P4222G
P4224A
P4224C
P4224E
P4224G
P4242A
P4242C
P4242E
P4242G
P4244A
P4244C
P4244E
P4244G
P4422A
P4422C
P4422E
P4422G
P4424A
P4424C
P4424E
P4424G
P4442A
P4442C
P4442E
P4442G
P4444A
P4444C
P4444E
P4444G
P5222A
P5222C
P5222E
P5222G
P5224A
P5224C
P5224E
P5224G
P5242A
P5242C
P5242E
P5242G
P5244A
P5244C
P5244E
P5244G
P5422A
P5422C
P5422E
P5422G
P5424A
P5424C
P5424E
P5424G
P5442A
P5442C
P5442E
P5442G
P5444A
P5444C
P5444E
P3223H
P3241B
P3241D
P3241F
P3241H
P3243B
P3243D
P3243F
P3243H
P3421B
P3421D
P3421F
P3421H
P3423B
P3423D
P3423F
P3423H
P3441B
P3441D
P3441F
P3441H
P3443B
P3443D
P3443F
P3443H
P4221B
P4221D
P4221F
P4221H
P4223B
P4223D
P4223F
P4223H
P4241B
P4241D
P4241F
P4241H
P4243B
P4243D
P4243F
P4243H
P4421B
P4421D
P4421F
P4421H
P4423B
P4423D
P4423F
P4423H
P4441B
P4441D
P4441F
P4441H
P4443B
P4443D
P4443F
P4443H
P5221B
P5221D
P5221F
P5221H
P5223B
P5223D
P5223F
P5223H
P5241B
P5241D
P5241F
P5241H
P5243B
P5243D
P5243F
P5243H
P5421B
P5421D
P5421F
P5421H
P5423B
P5423D
P5423F
P5423H
P5441B
P5441D
P5441F
P5441H
P5443B
P5443D
P5443F
P5443H
P6221B
P3223G
P3241A
P3241C
P3241E
P3241G
P3243A
P3243C
P3243E
P3243G
P3421A
P3421C
P3421E
P3421G
P3423A
P3423C
P3423E
P3423G
P3441A
P3441C
P3441E
P3441G
P3443A
P3443C
P3443E
P3443G
P4221A
P4221C
P4221E
P4221G
P4223A
P4223C
P4223E
P4223G
P4241A
P4241C
P4241E
P4241G
P4243A
P4243C
P4243E
P4243G
P4421A
P4421C
P4421E
P4421G
P4423A
P4423C
P4423E
P4423G
P4441A
P4441C
P4441E
P4441G
P4443A
P4443C
P4443E
P4443G
P5221A
P5221C
P5221E
P5221G
P5223A
P5223C
P5223E
P5223G
P5241A
P5241C
P5241E
P5241G
P5243A
P5243C
P5243E
P5243G
P5421A
P5421C
P5421E
P5421G
P5423A
P5423C
P5423E
P5423G
P5441A
P5441C
P5441E
P5441G
P5443A
P5443C
P5443E
P5443G
P6221A
P6221C
P3214F
P3214H
P3232B
P3232D
P3232F
P3232H
P3234B
P3234D
P3234F
P3234H
P3412B
P3412D
P3412F
P3412H
P3414B
P3414D
P3414F
P3414H
P3432B
P3432D
P3432F
P3432H
P3434B
P3434D
P3434F
P3434H
P4212B
P4212D
P4212F
P4212H
P4214B
P4214D
P4214F
P4214H
P4232B
P4232D
P4232F
P4232H
P4234B
P4234D
P4234F
P4234H
P4412B
P4412D
P4412F
P4412H
P4414B
P4414D
P4414F
P4414H
P4432B
P4432D
P4432F
P4432H
P4434B
P4434D
P4434F
P4434H
P5212B
P5212D
P5212F
P5212H
P5214B
P5214D
P5214F
P5214H
P5232B
P5232D
P5232F
P5232H
P5234B
P5234D
P5234F
P5234H
P5412B
P5412D
P5412F
P5412H
P5414B
P5414D
P5414F
P5414H
P5432B
P5432D
P5432F
P5432H
P5434B
P5434D
P5434F
P5434H
P6212B
P6212D
P6212F
P3214E
P3214G
P3232A
P3232C
P3232E
P3232G
P3234A
P3234C
P3234E
P3234G
P3412A
P3412C
P3412E
P3412G
P3414A
P3414C
P3414E
P3414G
P3432A
P3432C
P3432E
P3432G
P3434A
P3434C
P3434E
P3434G
P4212A
P4212C
P4212E
P4212G
P4214A
P4214C
P4214E
P4214G
P4232A
P4232C
P4232E
P4232G
P4234A
P4234C
P4234E
P4234G
P4412A
P4412C
P4412E
P4412G
P4414A
P4414C
P4414E
P4414G
P4432A
P4432C
P4432E
P4432G
P4434A
P4434C
P4434E
P4434G
P5212A
P5212C
P5212E
P5212G
P5214A
P5214C
P5214E
P5214G
P5232A
P5232C
P5232E
P5232G
P5234A
P5234C
P5234E
P5234G
P5412A
P5412C
P5412E
P5412G
P5414A
P5414C
P5414E
P5414G
P5432A
P5432C
P5432E
P5432G
P5434A
P5434C
P5434E
P5434G
P6212A
P6212C
P6212E
P6212G
P3213F
P3213H
P3231B
P3231D
P3231F
P3231H
P3233B
P3233D
P3233F
P3233H
P3411B
P3411D
P3411F
P3411H
P3413B
P3413D
P3413F
P3413H
P3431B
P3431D
P3431F
P3431H
P3433B
P3433D
P3433F
P3433H
P4211B
P4211D
P4211F
P4211H
P4213B
P4213D
P4213F
P4213H
P4231B
P4231D
P4231F
P4231H
P4233B
P4233D
P4233F
P4233H
P4411B
P4411D
P4411F
P4411H
P4413B
P4413D
P4413F
P4413H
P4431B
P4431D
P4431F
P4431H
P4433B
P4433D
P4433F
P4433H
P5211B
P5211D
P5211F
P5211H
P5213B
P5213D
P5213F
P5213H
P5231B
P5231D
P5231F
P5231H
P5233B
P5233D
P5233F
P5233H
P5411B
P5411D
P5411F
P5411H
P5413B
P5413D
P5413F
P5413H
P5431B
P5431D
P5431F
P5431H
P5433B
P5433D
P5433F
P5433H
P6211B
P6211D
P6211F
P6211H
P3213G
P3231A
P3231C
P3231E
P3231G
P3233A
P3233C
P3233E
P3233G
P3411A
P3411C
P3411E
P3411G
P3413A
P3413C
P3413E
P3413G
P3431A
P3431C
P3431E
P3431G
P3433A
P3433C
P3433E
P3433G
P4211A
P4211C
P4211E
P4211G
P4213A
P4213C
P4213E
P4213G
P4231A
P4231C
P4231E
P4231G
P4233A
P4233C
P4233E
P4233G
P4411A
P4411C
P4411E
P4411G
P4413A
P4413C
P4413E
P4413G
P4431A
P4431C
P4431E
P4431G
P4433A
P4433C
P4433E
P4433G
P5211A
P5211C
P5211E
P5211G
P5213A
P5213C
P5213E
P5213G
P5231A
P5231C
P5231E
P5231G
P5233A
P5233C
P5233E
P5233G
P5411A
P5411C
P5411E
P5411G
P5413A
P5413C
P5413E
P5413G
P5431A
P5431C
P5431E
P5431G
P5433A
P5433C
P5433E
P5433G
P6211A
P6211C
P6211E
P6211G
P6213A
P3124H
P3142B
P3142D
P3142F
P3142H
P3144B
P3144D
P3144F
P3144H
P3322B
P3322D
P3322F
P3322H
P3324B
P3324D
P3324F
P3324H
P3342B
P3342D
P3342F
P3342H
P3344B
P3344D
P3344F
P3344H
P4122B
P4122D
P4122F
P4122H
P4124B
P4124D
P4124F
P4124H
P4142B
P4142D
P4142F
P4142H
P4144B
P4144D
P4144F
P4144H
P4322B
P4322D
P4322F
P4322H
P4324B
P4324D
P4324F
P4324H
P4342B
P4342D
P4342F
P4342H
P4344B
P4344D
P4344F
P4344H
P5122B
P5122D
P5122F
P5122H
P5124B
P5124D
P5124F
P5124H
P5142B
P5142D
P5142F
P5142H
P5144B
P5144D
P5144F
P5144H
P5322B
P5322D
P5322F
P5322H
P5324B
P5324D
P5324F
P5324H
P5342B
P5342D
P5342F
P5342H
P5344B
P5344D
P5344F
P5344H
P6122B
P6122D
P6122F
P6122H
P6124B
P6124D
P3124G
P3142A
P3142C
P3142E
P3142G
P3144A
P3144C
P3144E
P3144G
P3322A
P3322C
P3322E
P3322G
P3324A
P3324C
P3324E
P3324G
P3342A
P3342C
P3342E
P3342G
P3344A
P3344C
P3344E
P3344G
P4122A
P4122C
P4122E
P4122G
P4124A
P4124C
P4124E
P4124G
P4142A
P4142C
P4142E
P4142G
P4144A
P4144C
P4144E
P4144G
P4322A
P4322C
P4322E
P4322G
P4324A
P4324C
P4324E
P4324G
P4342A
P4342C
P4342E
P4342G
P4344A
P4344C
P4344E
P4344G
P5122A
P5122C
P5122E
P5122G
P5124A
P5124C
P5124E
P5124G
P5142A
P5142C
P5142E
P5142G
P5144A
P5144C
P5144E
P5144G
P5322A
P5322C
P5322E
P5322G
P5324A
P5324C
P5324E
P5324G
P5342A
P5342C
P5342E
P5342G
P5344A
P5344C
P5344E
P5344G
P6122A
P6122C
P6122E
P6122G
P6124A
P6124C
P6124E
P3123H
P3141B
P3141D
P3141F
P3141H
P3143B
P3143D
P3143F
P3143H
P3321B
P3321D
P3321F
P3321H
P3323B
P3323D
P3323F
P3323H
P3341B
P3341D
P3341F
P3341H
P3343B
P3343D
P3343F
P3343H
P4121B
P4121D
P4121F
P4121H
P4123B
P4123D
P4123F
P4123H
P4141B
P4141D
P4141F
P4141H
P4143B
P4143D
P4143F
P4143H
P4321B
P4321D
P4321F
P4321H
P4323B
P4323D
P4323F
P4323H
P4341B
P4341D
P4341F
P4341H
P4343B
P4343D
P4343F
P4343H
P5121B
P5121D
P5121F
P5121H
P5123B
P5123D
P5123F
P5123H
P5141B
P5141D
P5141F
P5141H
P5143B
P5143D
P5143F
P5143H
P5321B
P5321D
P5321F
P5321H
P5323B
P5323D
P5323F
P5323H
P5341B
P5341D
P5341F
P5341H
P5343B
P5343D
P5343F
P5343H
P6121B
P6121D
P6121F
P6121H
P6123B
P6123D
P6123F
P3123G
P3141A
P3141C
P3141E
P3141G
P3143A
P3143C
P3143E
P3143G
P3321A
P3321C
P3321E
P3321G
P3323A
P3323C
P3323E
P3323G
P3341A
P3341C
P3341E
P3341G
P3343A
P3343C
P3343E
P3343G
P4121A
P4121C
P4121E
P4121G
P4123A
P4123C
P4123E
P4123G
P4141A
P4141C
P4141E
P4141G
P4143A
P4143C
P4143E
P4143G
P4321A
P4321C
P4321E
P4321G
P4323A
P4323C
P4323E
P4323G
P4341A
P4341C
P4341E
P4341G
P4343A
P4343C
P4343E
P4343G
P5121A
P5121C
P5121E
P5121G
P5123A
P5123C
P5123E
P5123G
P5141A
P5141C
P5141E
P5141G
P5143A
P5143C
P5143E
P5143G
P5321A
P5321C
P5321E
P5321G
P5323A
P5323C
P5323E
P5323G
P5341A
P5341C
P5341E
P5341G
P5343A
P5343C
P5343E
P5343G
P6121A
P6121C
P6121E
P6121G
P6123A
P6123C
P6123E
P3114H
P3132B
P3132D
P3132F
P3132H
P3134B
P3134D
P3134F
P3134H
P3312B
P3312D
P3312F
P3312H
P3314B
P3314D
P3314F
P3314H
P3332B
P3332D
P3332F
P3332H
P3334B
P3334D
P3334F
P3334H
P4112B
P4112D
P4112F
P4112H
P4114B
P4114D
P4114F
P4114H
P4132B
P4132D
P4132F
P4132H
P4134B
P4134D
P4134F
P4134H
P4312B
P4312D
P4312F
P4312H
P4314B
P4314D
P4314F
P4314H
P4332B
P4332D
P4332F
P4332H
P4334B
P4334D
P4334F
P4334H
P5112B
P5112D
P5112F
P5112H
P5114B
P5114D
P5114F
P5114H
P5132B
P5132D
P5132F
P5132H
P5134B
P5134D
P5134F
P5134H
P5312B
P5312D
P5312F
P5312H
P5314B
P5314D
P5314F
P5314H
P5332B
P5332D
P5332F
P5332H
P5334B
P5334D
P5334F
P5334H
P6112B
P6112D
P6112F
P6112H
P6114B
P6114D
P6114F
P3114G
P3132A
P3132C
P3132E
P3132G
P3134A
P3134C
P3134E
P3134G
P3312A
P3312C
P3312E
P3312G
P3314A
P3314C
P3314E
P3314G
P3332A
P3332C
P3332E
P3332G
P3334A
P3334C
P3334E
P3334G
P4112A
P4112C
P4112E
P4112G
P4114A
P4114C
P4114E
P4114G
P4132A
P4132C
P4132E
P4132G
P4134A
P4134C
P4134E
P4134G
P4312A
P4312C
P4312E
P4312G
P4314A
P4314C
P4314E
P4314G
P4332A
P4332C
P4332E
P4332G
P4334A
P4334C
P4334E
P4334G
P5112A
P5112C
P5112E
P5112G
P5114A
P5114C
P5114E
P5114G
P5132A
P5132C
P5132E
P5132G
P5134A
P5134C
P5134E
P5134G
P5312A
P5312C
P5312E
P5312G
P5314A
P5314C
P5314E
P5314G
P5332A
P5332C
P5332E
P5332G
P5334A
P5334C
P5334E
P5334G
P6112A
P6112C
P6112E
P6112G
P6114A
P6114C
P3131B
P3131D
P3131F
P3131H
P3133B
P3133D
P3133F
P3133H
P3311B
P3311D
P3311F
P3311H
P3313B
P3313D
P3313F
P3313H
P3331B
P3331D
P3331F
P3331H
P3333B
P3333D
P3333F
P3333H
P4111B
P4111D
P4111F
P4111H
P4113B
P4113D
P4113F
P4113H
P4131B
P4131D
P4131F
P4131H
P4133B
P4133D
P4133F
P4133H
P4311B
P4311D
P4311F
P4311H
P4313B
P4313D
P4313F
P4313H
P4331B
P4331D
P4331F
P4331H
P4333B
P4333D
P4333F
P4333H
P5111B
P5111D
P5111F
P5111H
P5113B
P5113D
P5113F
P5113H
P5131B
P5131D
P5131F
P5131H
P5133B
P5133D
P5133F
P5133H
P5311B
P5311D
P5311F
P5311H
P5313B
P5313D
P5313F
P5313H
P5331B
P5331D
P5331F
P5331H
P5333B
P5333D
P5333F
P5333H
P6111B
P6111D
P6111F
P6111H
P6113B
P6113D
P3131A
P3131C
P3131E
P3131G
P3133A
P3133C
P3133E
P3133G
P3311A
P3311C
P3311E
P3311G
P3313A
P3313C
P3313E
P3313G
P3331A
P3331C
P3331E
P3331G
P3333A
P3333C
P3333E
P3333G
P4111A
P4111C
P4111E
P4111G
P4113A
P4113C
P4113E
P4113G
P4131A
P4131C
P4131E
P4131G
P4133A
P4133C
P4133E
P4133G
P4311A
P4311C
P4311E
P4311G
P4313A
P4313C
P4313E
P4313G
P4331A
P4331C
P4331E
P4331G
P4333A
P4333C
P4333E
P4333G
P5111A
P5111C
P5111E
P5111G
P5113A
P5113C
P5113E
P5113G
P5131A
P5131C
P5131E
P5131G
P5133A
P5133C
P5133E
P5133G
P5311A
P5311C
P5311E
P5311G
P5313A
P5313C
P5313E
P5313G
P5331A
P5331C
P5331E
P5331G
P5333A
P5333C
P5333E
P5333G
P6111A
P6111C
P6111E
P6111G
P6113A
P6113C
N3242B
N3242D
N3242F
N3242H
N3244B
N3244D
N3244F
N3244H
N3422B
N3422D
N3422F
N3422H
N3424B
N3424D
N3424F
N3424H
N3442B
N3442D
N3442F
N3442H
N3444B
N3444D
N3444F
N3444H
N4222B
N4222D
N4222F
N4222H
N4224B
N4224D
N4224F
N4224H
N4242B
N4242D
N4242F
N4242H
N4244B
N4244D
N4244F
N4244H
N4422B
N4422D
N4422F
N4422H
N4424B
N4424D
N4424F
N4424H
N4442B
N4442D
N4442F
N4442H
N4444B
N4444D
N4444F
N4444H
N5222B
N5222D
N5222F
N5222H
N5224B
N5224D
N5224F
N5224H
N5242B
N5242D
N5242F
N5242H
N5244B
N5244D
N5244F
N5244H
N5422B
N5422D
N5422F
N5422H
N5424B
N5424D
N5424F
N5424H
N5442B
N5442D
N5442F
N5442H
N5444B
N5444D
N5444F
N5444H
N6222B
N6222D
N6222F
N6222H
N6224B
N6224D
N3242A
N3242C
N3242E
N3242G
N3244A
N3244C
N3244E
N3244G
N3422A
N3422C
N3422E
N3422G
N3424A
N3424C
N3424E
N3424G
N3442A
N3442C
N3442E
N3442G
N3444A
N3444C
N3444E
N3444G
N4222A
N4222C
N4222E
N4222G
N4224A
N4224C
N4224E
N4224G
N4242A
N4242C
N4242E
N4242G
N4244A
N4244C
N4244E
N4244G
N4422A
N4422C
N4422E
N4422G
N4424A
N4424C
N4424E
N4424G
N4442A
N4442C
N4442E
N4442G
N4444A
N4444C
N4444E
N4444G
N5222A
N5222C
N5222E
N5222G
N5224A
N5224C
N5224E
N5224G
N5242A
N5242C
N5242E
N5242G
N5244A
N5244C
N5244E
N5244G
N5422A
N5422C
N5422E
N5422G
N5424A
N5424C
N5424E
N5424G
N5442A
N5442C
N5442E
N5442G
N5444A
N5444C
N5444E
N5444G
N6222A
N6222C
N6222E
N6222G
N6224A
N3241D
N3241F
N3241H
N3243B
N3243D
N3243F
N3243H
N3421B
N3421D
N3421F
N3421H
N3423B
N3423D
N3423F
N3423H
N3441B
N3441D
N3441F
N3441H
N3443B
N3443D
N3443F
N3443H
N4221B
N4221D
N4221F
N4221H
N4223B
N4223D
N4223F
N4223H
N4241B
N4241D
N4241F
N4241H
N4243B
N4243D
N4243F
N4243H
N4421B
N4421D
N4421F
N4421H
N4423B
N4423D
N4423F
N4423H
N4441B
N4441D
N4441F
N4441H
N4443B
N4443D
N4443F
N4443H
N5221B
N5221D
N5221F
N5221H
N5223B
N5223D
N5223F
N5223H
N5241B
N5241D
N5241F
N5241H
N5243B
N5243D
N5243F
N5243H
N5421B
N5421D
N5421F
N5421H
N5423B
N5423D
N5423F
N5423H
N5441B
N5441D
N5441F
N5441H
N5443B
N5443D
N5443F
N5443H
N6221B
N6221D
N6221F
N6221H
N6223B
N3241C
N3241E
N3241G
N3243A
N3243C
N3243E
N3243G
N3421A
N3421C
N3421E
N3421G
N3423A
N3423C
N3423E
N3423G
N3441A
N3441C
N3441E
N3441G
N3443A
N3443C
N3443E
N3443G
N4221A
N4221C
N4221E
N4221G
N4223A
N4223C
N4223E
N4223G
N4241A
N4241C
N4241E
N4241G
N4243A
N4243C
N4243E
N4243G
N4421A
N4421C
N4421E
N4421G
N4423A
N4423C
N4423E
N4423G
N4441A
N4441C
N4441E
N4441G
N4443A
N4443C
N4443E
N4443G
N5221A
N5221C
N5221E
N5221G
N5223A
N5223C
N5223E
N5223G
N5241A
N5241C
N5241E
N5241G
N5243A
N5243C
N5243E
N5243G
N5421A
N5421C
N5421E
N5421G
N5423A
N5423C
N5423E
N5423G
N5441A
N5441C
N5441E
N5441G
N5443A
N5443C
N5443E
N5443G
N6221A
N6221C
N6221E
N6221G
N3232D
N3232F
N3232H
N3234B
N3234D
N3234F
N3234H
N3412B
N3412D
N3412F
N3412H
N3414B
N3414D
N3414F
N3414H
N3432B
N3432D
N3432F
N3432H
N3434B
N3434D
N3434F
N3434H
N4212B
N4212D
N4212F
N4212H
N4214B
N4214D
N4214F
N4214H
N4232B
N4232D
N4232F
N4232H
N4234B
N4234D
N4234F
N4234H
N4412B
N4412D
N4412F
N4412H
N4414B
N4414D
N4414F
N4414H
N4432B
N4432D
N4432F
N4432H
N4434B
N4434D
N4434F
N4434H
N5212B
N5212D
N5212F
N5212H
N5214B
N5214D
N5214F
N5214H
N5232B
N5232D
N5232F
N5232H
N5234B
N5234D
N5234F
N5234H
N5412B
N5412D
N5412F
N5412H
N5414B
N5414D
N5414F
N5414H
N5432B
N5432D
N5432F
N5432H
N5434B
N5434D
N5434F
N5434H
N6212B
N6212D
N6212F
N6212H
N3232C
N3232E
N3232G
N3234A
N3234C
N3234E
N3234G
N3412A
N3412C
N3412E
N3412G
N3414A
N3414C
N3414E
N3414G
N3432A
N3432C
N3432E
N3432G
N3434A
N3434C
N3434E
N3434G
N4212A
N4212C
N4212E
N4212G
N4214A
N4214C
N4214E
N4214G
N4232A
N4232C
N4232E
N4232G
N4234A
N4234C
N4234E
N4234G
N4412A
N4412C
N4412E
N4412G
N4414A
N4414C
N4414E
N4414G
N4432A
N4432C
N4432E
N4432G
N4434A
N4434C
N4434E
N4434G
N5212A
N5212C
N5212E
N5212G
N5214A
N5214C
N5214E
N5214G
N5232A
N5232C
N5232E
N5232G
N5234A
N5234C
N5234E
N5234G
N5412A
N5412C
N5412E
N5412G
N5414A
N5414C
N5414E
N5414G
N5432A
N5432C
N5432E
N5432G
N5434A
N5434C
N5434E
N5434G
N6212A
N6212C
N6212E
N3231D
N3231F
N3231H
N3233B
N3233D
N3233F
N3233H
N3411B
N3411D
N3411F
N3411H
N3413B
N3413D
N3413F
N3413H
N3431B
N3431D
N3431F
N3431H
N3433B
N3433D
N3433F
N3433H
N4211B
N4211D
N4211F
N4211H
N4213B
N4213D
N4213F
N4213H
N4231B
N4231D
N4231F
N4231H
N4233B
N4233D
N4233F
N4233H
N4411B
N4411D
N4411F
N4411H
N4413B
N4413D
N4413F
N4413H
N4431B
N4431D
N4431F
N4431H
N4433B
N4433D
N4433F
N4433H
N5211B
N5211D
N5211F
N5211H
N5213B
N5213D
N5213F
N5213H
N5231B
N5231D
N5231F
N5231H
N5233B
N5233D
N5233F
N5233H
N5411B
N5411D
N5411F
N5411H
N5413B
N5413D
N5413F
N5413H
N5431B
N5431D
N5431F
N5431H
N5433B
N5433D
N5433F
N5433H
N6211B
N6211D
N6211F
N3231C
N3231E
N3231G
N3233A
N3233C
N3233E
N3233G
N3411A
N3411C
N3411E
N3411G
N3413A
N3413C
N3413E
N3413G
N3431A
N3431C
N3431E
N3431G
N3433A
N3433C
N3433E
N3433G
N4211A
N4211C
N4211E
N4211G
N4213A
N4213C
N4213E
N4213G
N4231A
N4231C
N4231E
N4231G
N4233A
N4233C
N4233E
N4233G
N4411A
N4411C
N4411E
N4411G
N4413A
N4413C
N4413E
N4413G
N4431A
N4431C
N4431E
N4431G
N4433A
N4433C
N4433E
N4433G
N5211A
N5211C
N5211E
N5211G
N5213A
N5213C
N5213E
N5213G
N5231A
N5231C
N5231E
N5231G
N5233A
N5233C
N5233E
N5233G
N5411A
N5411C
N5411E
N5411G
N5413A
N5413C
N5413E
N5413G
N5431A
N5431C
N5431E
N5431G
N5433A
N5433C
N5433E
N5433G
N6211A
N6211C
N3142D
N3142F
N3142H
N3144B
N3144D
N3144F
N3144H
N3322B
N3322D
N3322F
N3322H
N3324B
N3324D
N3324F
N3324H
N3342B
N3342D
N3342F
N3342H
N3344B
N3344D
N3344F
N3344H
N4122B
N4122D
N4122F
N4122H
N4124B
N4124D
N4124F
N4124H
N4142B
N4142D
N4142F
N4142H
N4144B
N4144D
N4144F
N4144H
N4322B
N4322D
N4322F
N4322H
N4324B
N4324D
N4324F
N4324H
N4342B
N4342D
N4342F
N4342H
N4344B
N4344D
N4344F
N4344H
N5122B
N5122D
N5122F
N5122H
N5124B
N5124D
N5124F
N5124H
N5142B
N5142D
N5142F
N5142H
N5144B
N5144D
N5144F
N5144H
N5322B
N5322D
N5322F
N5322H
N5324B
N5324D
N5324F
N5324H
N5342B
N5342D
N5342F
N5342H
N5344B
N5344D
N5344F
N5344H
N6122B
N3142C
N3142E
N3142G
N3144A
N3144C
N3144E
N3144G
N3322A
N3322C
N3322E
N3322G
N3324A
N3324C
N3324E
N3324G
N3342A
N3342C
N3342E
N3342G
N3344A
N3344C
N3344E
N3344G
N4122A
N4122C
N4122E
N4122G
N4124A
N4124C
N4124E
N4124G
N4142A
N4142C
N4142E
N4142G
N4144A
N4144C
N4144E
N4144G
N4322A
N4322C
N4322E
N4322G
N4324A
N4324C
N4324E
N4324G
N4342A
N4342C
N4342E
N4342G
N4344A
N4344C
N4344E
N4344G
N5122A
N5122C
N5122E
N5122G
N5124A
N5124C
N5124E
N5124G
N5142A
N5142C
N5142E
N5142G
N5144A
N5144C
N5144E
N5144G
N5322A
N5322C
N5322E
N5322G
N5324A
N5324C
N5324E
N5324G
N5342A
N5342C
N5342E
N5342G
N5344A
N5344C
N5344E
N5344G
N3141D
N3141F
N3141H
N3143B
N3143D
N3143F
N3143H
N3321B
N3321D
N3321F
N3321H
N3323B
N3323D
N3323F
N3323H
N3341B
N3341D
N3341F
N3341H
N3343B
N3343D
N3343F
N3343H
N4121B
N4121D
N4121F
N4121H
N4123B
N4123D
N4123F
N4123H
N4141B
N4141D
N4141F
N4141H
N4143B
N4143D
N4143F
N4143H
N4321B
N4321D
N4321F
N4321H
N4323B
N4323D
N4323F
N4323H
N4341B
N4341D
N4341F
N4341H
N4343B
N4343D
N4343F
N4343H
N5121B
N5121D
N5121F
N5121H
N5123B
N5123D
N5123F
N5123H
N5141B
N5141D
N5141F
N5141H
N5143B
N5143D
N5143F
N5143H
N5321B
N5321D
N5321F
N5321H
N5323B
N5323D
N5323F
N5323H
N5341B
N5341D
N5341F
N5341H
N5343B
N5343D
N5343F
N5343H
N3141E
N3141G
N3143A
N3143C
N3143E
N3143G
N3321A
N3321C
N3321E
N3321G
N3323A
N3323C
N3323E
N3323G
N3341A
N3341C
N3341E
N3341G
N3343A
N3343C
N3343E
N3343G
N4121A
N4121C
N4121E
N4121G
N4123A
N4123C
N4123E
N4123G
N4141A
N4141C
N4141E
N4141G
N4143A
N4143C
N4143E
N4143G
N4321A
N4321C
N4321E
N4321G
N4323A
N4323C
N4323E
N4323G
N4341A
N4341C
N4341E
N4341G
N4343A
N4343C
N4343E
N4343G
N5121A
N5121C
N5121E
N5121G
N5123A
N5123C
N5123E
N5123G
N5141A
N5141C
N5141E
N5141G
N5143A
N5143C
N5143E
N5143G
N5321A
N5321C
N5321E
N5321G
N5323A
N5323C
N5323E
N5323G
N5341A
N5341C
N5341E
N5341G
N5343A
N5343C
N5343E
N3132F
N3132H
N3134B
N3134D
N3134F
N3134H
N3312B
N3312D
N3312F
N3312H
N3314B
N3314D
N3314F
N3314H
N3332B
N3332D
N3332F
N3332H
N3334B
N3334D
N3334F
N3334H
N4112B
N4112D
N4112F
N4112H
N4114B
N4114D
N4114F
N4114H
N4132B
N4132D
N4132F
N4132H
N4134B
N4134D
N4134F
N4134H
N4312B
N4312D
N4312F
N4312H
N4314B
N4314D
N4314F
N4314H
N4332B
N4332D
N4332F
N4332H
N4334B
N4334D
N4334F
N4334H
N5112B
N5112D
N5112F
N5112H
N5114B
N5114D
N5114F
N5114H
N5132B
N5132D
N5132F
N5132H
N5134B
N5134D
N5134F
N5134H
N5312B
N5312D
N5312F
N5312H
N5314B
N5314D
N5314F
N5314H
N5332B
N5332D
N5332F
N5332H
N5334B
N5334D
N3132E
N3132G
N3134A
N3134C
N3134E
N3134G
N3312A
N3312C
N3312E
N3312G
N3314A
N3314C
N3314E
N3314G
N3332A
N3332C
N3332E
N3332G
N3334A
N3334C
N3334E
N3334G
N4112A
N4112C
N4112E
N4112G
N4114A
N4114C
N4114E
N4114G
N4132A
N4132C
N4132E
N4132G
N4134A
N4134C
N4134E
N4134G
N4312A
N4312C
N4312E
N4312G
N4314A
N4314C
N4314E
N4314G
N4332A
N4332C
N4332E
N4332G
N4334A
N4334C
N4334E
N4334G
N5112A
N5112C
N5112E
N5112G
N5114A
N5114C
N5114E
N5114G
N5132A
N5132C
N5132E
N5132G
N5134A
N5134C
N5134E
N5134G
N5312A
N5312C
N5312E
N5312G
N5314A
N5314C
N5314E
N5314G
N5332A
N5332C
N5332E
N5332G
N5334A
N5334C
N3131F
N3131H
N3133B
N3133D
N3133F
N3133H
N3311B
N3311D
N3311F
N3311H
N3313B
N3313D
N3313F
N3313H
N3331B
N3331D
N3331F
N3331H
N3333B
N3333D
N3333F
N3333H
N4111B
N4111D
N4111F
N4111H
N4113B
N4113D
N4113F
N4113H
N4131B
N4131D
N4131F
N4131H
N4133B
N4133D
N4133F
N4133H
N4311B
N4311D
N4311F
N4311H
N4313B
N4313D
N4313F
N4313H
N4331B
N4331D
N4331F
N4331H
N4333B
N4333D
N4333F
N4333H
N5111B
N5111D
N5111F
N5111H
N5113B
N5113D
N5113F
N5113H
N5131B
N5131D
N5131F
N5131H
N5133B
N5133D
N5133F
N5133H
N5311B
N5311D
N5311F
N5311H
N5313B
N5313D
N5313F
N5313H
N5331B
N5331D
N5331F
N5331H
N5333B
N3131E
N3131G
N3133A
N3133C
N3133E
N3133G
N3311A
N3311C
N3311E
N3311G
N3313A
N3313C
N3313E
N3313G
N3331A
N3331C
N3331E
N3331G
N3333A
N3333C
N3333E
N3333G
N4111A
N4111C
N4111E
N4111G
N4113A
N4113C
N4113E
N4113G
N4131A
N4131C
N4131E
N4131G
N4133A
N4133C
N4133E
N4133G
N4311A
N4311C
N4311E
N4311G
N4313A
N4313C
N4313E
N4313G
N4331A
N4331C
N4331E
N4331G
N4333A
N4333C
N4333E
N4333G
N5111A
N5111C
N5111E
N5111G
N5113A
N5113C
N5113E
N5113G
N5131A
N5131C
N5131E
N5131G
N5133A
N5133C
N5133E
N5133G
N5311A
N5311C
N5311E
N5311G
N5313A
N5313C
N5313E
N5313G
N5331A
N5331C
N5331E
N5331G
M3242F
M3242H
M3244B
M3244D
M3244F
M3244H
M3422B
M3422D
M3422F
M3422H
M3424B
M3424D
M3424F
M3424H
M3442B
M3442D
M3442F
M3442H
M3444B
M3444D
M3444F
M3444H
M4222B
M4222D
M4222F
M4222H
M4224B
M4224D
M4224F
M4224H
M4242B
M4242D
M4242F
M4242H
M4244B
M4244D
M4244F
M4244H
M4422B
M4422D
M4422F
M4422H
M4424B
M4424D
M4424F
M4424H
M4442B
M4442D
M4442F
M4442H
M4444B
M4444D
M4444F
M4444H
M5222B
M5222D
M5222F
M5222H
M5224B
M5224D
M5224F
M5224H
M5242B
M5242D
M5242F
M5242H
M5244B
M5244D
M5244F
M5244H
M5422B
M5422D
M5422F
M5422H
M5424B
M5424D
M5424F
M5424H
M5442B
M5442D
M5442F
M5442H
M3242E
M3242G
M3244A
M3244C
M3244E
M3244G
M3422A
M3422C
M3422E
M3422G
M3424A
M3424C
M3424E
M3424G
M3442A
M3442C
M3442E
M3442G
M3444A
M3444C
M3444E
M3444G
M4222A
M4222C
M4222E
M4222G
M4224A
M4224C
M4224E
M4224G
M4242A
M4242C
M4242E
M4242G
M4244A
M4244C
M4244E
M4244G
M4422A
M4422C
M4422E
M4422G
M4424A
M4424C
M4424E
M4424G
M4442A
M4442C
M4442E
M4442G
M4444A
M4444C
M4444E
M4444G
M5222A
M5222C
M5222E
M5222G
M5224A
M5224C
M5224E
M5224G
M5242A
M5242C
M5242E
M5242G
M5244A
M5244C
M5244E
M5244G
M5422A
M5422C
M5422E
M5422G
M5424A
M5424C
M5424E
M5424G
M5442A
M5442C
M5442E
M3241D
M3241F
M3241H
M3243B
M3243D
M3243F
M3243H
M3421B
M3421D
M3421F
M3421H
M3423B
M3423D
M3423F
M3423H
M3441B
M3441D
M3441F
M3441H
M3443B
M3443D
M3443F
M3443H
M4221B
M4221D
M4221F
M4221H
M4223B
M4223D
M4223F
M4223H
M4241B
M4241D
M4241F
M4241H
M4243B
M4243D
M4243F
M4243H
M4421B
M4421D
M4421F
M4421H
M4423B
M4423D
M4423F
M4423H
M4441B
M4441D
M4441F
M4441H
M4443B
M4443D
M4443F
M4443H
M5221B
M5221D
M5221F
M5221H
M5223B
M5223D
M5223F
M5223H
M5241B
M5241D
M5241F
M5241H
M5243B
M5243D
M5243F
M5243H
M5421B
M5421D
M5421F
M5421H
M5423B
M5423D
M5423F
M5423H
M5441B
M5441D
M3241C
M3241E
M3241G
M3243A
M3243C
M3243E
M3243G
M3421A
M3421C
M3421E
M3421G
M3423A
M3423C
M3423E
M3423G
M3441A
M3441C
M3441E
M3441G
M3443A
M3443C
M3443E
M3443G
M4221A
M4221C
M4221E
M4221G
M4223A
M4223C
M4223E
M4223G
M4241A
M4241C
M4241E
M4241G
M4243A
M4243C
M4243E
M4243G
M4421A
M4421C
M4421E
M4421G
M4423A
M4423C
M4423E
M4423G
M4441A
M4441C
M4441E
M4441G
M4443A
M4443C
M4443E
M4443G
M5221A
M5221C
M5221E
M5221G
M5223A
M5223C
M5223E
M5223G
M5241A
M5241C
M5241E
M5241G
M5243A
M5243C
M5243E
M5243G
M5421A
M5421C
M5421E
M5421G
M5423A
M5423C
M5423E
M5423G
M5441A
M5441C
M3232D
M3232F
M3232H
M3234B
M3234D
M3234F
M3234H
M3412B
M3412D
M3412F
M3412H
M3414B
M3414D
M3414F
M3414H
M3432B
M3432D
M3432F
M3432H
M3434B
M3434D
M3434F
M3434H
M4212B
M4212D
M4212F
M4212H
M4214B
M4214D
M4214F
M4214H
M4232B
M4232D
M4232F
M4232H
M4234B
M4234D
M4234F
M4234H
M4412B
M4412D
M4412F
M4412H
M4414B
M4414D
M4414F
M4414H
M4432B
M4432D
M4432F
M4432H
M4434B
M4434D
M4434F
M4434H
M5212B
M5212D
M5212F
M5212H
M5214B
M5214D
M5214F
M5214H
M5232B
M5232D
M5232F
M5232H
M5234B
M5234D
M5234F
M5234H
M5412B
M5412D
M5412F
M5412H
M5414B
M5414D
M5414F
M5414H
M5432B
M3232C
M3232E
M3232G
M3234A
M3234C
M3234E
M3234G
M3412A
M3412C
M3412E
M3412G
M3414A
M3414C
M3414E
M3414G
M3432A
M3432C
M3432E
M3432G
M3434A
M3434C
M3434E
M3434G
M4212A
M4212C
M4212E
M4212G
M4214A
M4214C
M4214E
M4214G
M4232A
M4232C
M4232E
M4232G
M4234A
M4234C
M4234E
M4234G
M4412A
M4412C
M4412E
M4412G
M4414A
M4414C
M4414E
M4414G
M4432A
M4432C
M4432E
M4432G
M4434A
M4434C
M4434E
M4434G
M5212A
M5212C
M5212E
M5212G
M5214A
M5214C
M5214E
M5214G
M5232A
M5232C
M5232E
M5232G
M5234A
M5234C
M5234E
M5234G
M5412A
M5412C
M5412E
M5412G
M5414A
M5414C
M5414E
M5414G
M3231B
M3231D
M3231F
M3231H
M3233B
M3233D
M3233F
M3233H
M3411B
M3411D
M3411F
M3411H
M3413B
M3413D
M3413F
M3413H
M3431B
M3431D
M3431F
M3431H
M3433B
M3433D
M3433F
M3433H
M4211B
M4211D
M4211F
M4211H
M4213B
M4213D
M4213F
M4213H
M4231B
M4231D
M4231F
M4231H
M4233B
M4233D
M4233F
M4233H
M4411B
M4411D
M4411F
M4411H
M4413B
M4413D
M4413F
M4413H
M4431B
M4431D
M4431F
M4431H
M4433B
M4433D
M4433F
M4433H
M5211B
M5211D
M5211F
M5211H
M5213B
M5213D
M5213F
M5213H
M5231B
M5231D
M5231F
M5231H
M5233B
M5233D
M5233F
M5233H
M5411B
M5411D
M5411F
M5411H
M5413B
M5413D
M5413F
M5413H
M3231A
M3231C
M3231E
M3231G
M3233A
M3233C
M3233E
M3233G
M3411A
M3411C
M3411E
M3411G
M3413A
M3413C
M3413E
M3413G
M3431A
M3431C
M3431E
M3431G
M3433A
M3433C
M3433E
M3433G
M4211A
M4211C
M4211E
M4211G
M4213A
M4213C
M4213E
M4213G
M4231A
M4231C
M4231E
M4231G
M4233A
M4233C
M4233E
M4233G
M4411A
M4411C
M4411E
M4411G
M4413A
M4413C
M4413E
M4413G
M4431A
M4431C
M4431E
M4431G
M4433A
M4433C
M4433E
M4433G
M5211A
M5211C
M5211E
M5211G
M5213A
M5213C
M5213E
M5213G
M5231A
M5231C
M5231E
M5231G
M5233A
M5233C
M5233E
M5233G
M5411A
M5411C
M5411E
M5411G
M5413A
M5413C
M5413E
M3142B
M3142D
M3142F
M3142H
M3144B
M3144D
M3144F
M3144H
M3322B
M3322D
M3322F
M3322H
M3324B
M3324D
M3324F
M3324H
M3342B
M3342D
M3342F
M3342H
M3344B
M3344D
M3344F
M3344H
M4122B
M4122D
M4122F
M4122H
M4124B
M4124D
M4124F
M4124H
M4142B
M4142D
M4142F
M4142H
M4144B
M4144D
M4144F
M4144H
M4322B
M4322D
M4322F
M4322H
M4324B
M4324D
M4324F
M4324H
M4342B
M4342D
M4342F
M4342H
M4344B
M4344D
M4344F
M4344H
M5122B
M5122D
M5122F
M5122H
M5124B
M5124D
M5124F
M5124H
M5142B
M5142D
M5142F
M5142H
M5144B
M5144D
M5144F
M5144H
M5322B
M5322D
M5322F
M5322H
M5324B
M5324D
M3142A
M3142C
M3142E
M3142G
M3144A
M3144C
M3144E
M3144G
M3322A
M3322C
M3322E
M3322G
M3324A
M3324C
M3324E
M3324G
M3342A
M3342C
M3342E
M3342G
M3344A
M3344C
M3344E
M3344G
M4122A
M4122C
M4122E
M4122G
M4124A
M4124C
M4124E
M4124G
M4142A
M4142C
M4142E
M4142G
M4144A
M4144C
M4144E
M4144G
M4322A
M4322C
M4322E
M4322G
M4324A
M4324C
M4324E
M4324G
M4342A
M4342C
M4342E
M4342G
M4344A
M4344C
M4344E
M4344G
M5122A
M5122C
M5122E
M5122G
M5124A
M5124C
M5124E
M5124G
M5142A
M5142C
M5142E
M5142G
M5144A
M5144C
M5144E
M5144G
M5322A
M5322C
M5322E
M5322G
M5324A
M3141B
M3141D
M3141F
M3141H
M3143B
M3143D
M3143F
M3143H
M3321B
M3321D
M3321F
M3321H
M3323B
M3323D
M3323F
M3323H
M3341B
M3341D
M3341F
M3341H
M3343B
M3343D
M3343F
M3343H
M4121B
M4121D
M4121F
M4121H
M4123B
M4123D
M4123F
M4123H
M4141B
M4141D
M4141F
M4141H
M4143B
M4143D
M4143F
M4143H
M4321B
M4321D
M4321F
M4321H
M4323B
M4323D
M4323F
M4323H
M4341B
M4341D
M4341F
M4341H
M4343B
M4343D
M4343F
M4343H
M5121B
M5121D
M5121F
M5121H
M5123B
M5123D
M5123F
M5123H
M5141B
M5141D
M5141F
M5141H
M5143B
M5143D
M5143F
M5143H
M5321B
M5321D
M5321F
M5321H
M5323B
M3123G
M3141A
M3141C
M3141E
M3141G
M3143A
M3143C
M3143E
M3143G
M3321A
M3321C
M3321E
M3321G
M3323A
M3323C
M3323E
M3323G
M3341A
M3341C
M3341E
M3341G
M3343A
M3343C
M3343E
M3343G
M4121A
M4121C
M4121E
M4121G
M4123A
M4123C
M4123E
M4123G
M4141A
M4141C
M4141E
M4141G
M4143A
M4143C
M4143E
M4143G
M4321A
M4321C
M4321E
M4321G
M4323A
M4323C
M4323E
M4323G
M4341A
M4341C
M4341E
M4341G
M4343A
M4343C
M4343E
M4343G
M5121A
M5121C
M5121E
M5121G
M5123A
M5123C
M5123E
M5123G
M5141A
M5141C
M5141E
M5141G
M5143A
M5143C
M5143E
M5143G
M5321A
M5321C
M5321E
M5321G
M3114F
M3114H
M3132B
M3132D
M3132F
M3132H
M3134B
M3134D
M3134F
M3134H
M3312B
M3312D
M3312F
M3312H
M3314B
M3314D
M3314F
M3314H
M3332B
M3332D
M3332F
M3332H
M3334B
M3334D
M3334F
M3334H
M4112B
M4112D
M4112F
M4112H
M4114B
M4114D
M4114F
M4114H
M4132B
M4132D
M4132F
M4132H
M4134B
M4134D
M4134F
M4134H
M4312B
M4312D
M4312F
M4312H
M4314B
M4314D
M4314F
M4314H
M4332B
M4332D
M4332F
M4332H
M4334B
M4334D
M4334F
M4334H
M5112B
M5112D
M5112F
M5112H
M5114B
M5114D
M5114F
M5114H
M5132B
M5132D
M5132F
M5132H
M5134B
M5134D
M5134F
M5134H
M5312B
M5312D
M5312F
M3114C
M3114E
M3114G
M3132A
M3132C
M3132E
M3132G
M3134A
M3134C
M3134E
M3134G
M3312A
M3312C
M3312E
M3312G
M3314A
M3314C
M3314E
M3314G
M3332A
M3332C
M3332E
M3332G
M3334A
M3334C
M3334E
M3334G
M4112A
M4112C
M4112E
M4112G
M4114A
M4114C
M4114E
M4114G
M4132A
M4132C
M4132E
M4132G
M4134A
M4134C
M4134E
M4134G
M4312A
M4312C
M4312E
M4312G
M4314A
M4314C
M4314E
M4314G
M4332A
M4332C
M4332E
M4332G
M4334A
M4334C
M4334E
M4334G
M5112A
M5112C
M5112E
M5112G
M5114A
M5114C
M5114E
M5114G
M5132A
M5132C
M5132E
M5132G
M5134A
M5134C
M5134E
M5134G
M5312A
M3113B
M3113D
M3113F
M3113H
M3131B
M3131D
M3131F
M3131H
M3133B
M3133D
M3133F
M3133H
M3311B
M3311D
M3311F
M3311H
M3313B
M3313D
M3313F
M3313H
M3331B
M3331D
M3331F
M3331H
M3333B
M3333D
M3333F
M3333H
M4111B
M4111D
M4111F
M4111H
M4113B
M4113D
M4113F
M4113H
M4131B
M4131D
M4131F
M4131H
M4133B
M4133D
M4133F
M4133H
M4311B
M4311D
M4311F
M4311H
M4313B
M4313D
M4313F
M4313H
M4331B
M4331D
M4331F
M4331H
M4333B
M4333D
M4333F
M4333H
M5111B
M5111D
M5111F
M5111H
M5113B
M5113D
M5113F
M5113H
M5131B
M5131D
M5131F
M5131H
M5133B
M5133D
M5133F
M5133H
M5311B
M3111E
M3111G
M3113A
M3113C
M3113E
M3113G
M3131A
M3131C
M3131E
M3131G
M3133A
M3133C
M3133E
M3133G
M3311A
M3311C
M3311E
M3311G
M3313A
M3313C
M3313E
M3313G
M3331A
M3331C
M3331E
M3331G
M3333A
M3333C
M3333E
M3333G
M4111A
M4111C
M4111E
M4111G
M4113A
M4113C
M4113E
M4113G
M4131A
M4131C
M4131E
M4131G
M4133A
M4133C
M4133E
M4133G
M4311A
M4311C
M4311E
M4311G
M4313A
M4313C
M4313E
M4313G
M4331A
M4331C
M4331E
M4331G
M4333A
M4333C
M4333E
M4333G
M5111A
M5111C
M5111E
M5111G
M5113A
M5113C
M5113E
M5113G
M5131A
M5131C
M5131E
M5131G
M5133A
M5133C
M5133E
M5133G
L3222D
L3222F
L3222H
L3224B
L3224D
L3224F
L3224H
L3242B
L3242D
L3242F
L3242H
L3244B
L3244D
L3244F
L3244H
L3422B
L3422D
L3422F
L3422H
L3424B
L3424D
L3424F
L3424H
L3442B
L3442D
L3442F
L3442H
L3444B
L3444D
L3444F
L3444H
L4222B
L4222D
L4222F
L4222H
L4224B
L4224D
L4224F
L4224H
L4242B
L4242D
L4242F
L4242H
L4244B
L4244D
L4244F
L4244H
L4422B
L4422D
L4422F
L4422H
L4424B
L4424D
L4424F
L4424H
L4442B
L4442D
L4442F
L4442H
L4444B
L4444D
L4444F
L4444H
L5222B
L5222D
L5222F
L5222H
L5224B
L5224D
L5224F
L5224H
L5242B
L5242D
L5242F
L5242H
L5244B
L5244D
L5244F
L5244H
L2444A
L2444C
L2444E
L2444G
L3222A
L3222C
L3222E
L3222G
L3224A
L3224C
L3224E
L3224G
L3242A
L3242C
L3242E
L3242G
L3244A
L3244C
L3244E
L3244G
L3422A
L3422C
L3422E
L3422G
L3424A
L3424C
L3424E
L3424G
L3442A
L3442C
L3442E
L3442G
L3444A
L3444C
L3444E
L3444G
L4222A
L4222C
L4222E
L4222G
L4224A
L4224C
L4224E
L4224G
L4242A
L4242C
L4242E
L4242G
L4244A
L4244C
L4244E
L4244G
L4422A
L4422C
L4422E
L4422G
L4424A
L4424C
L4424E
L4424G
L4442A
L4442C
L4442E
L4442G
L4444A
L4444C
L4444E
L4444G
L5222A
L5222C
L5222E
L5222G
L5224A
L5224C
L5224E
L5224G
L5242A
L5242C
L5242E
L5242G
L5244A
L5244C
L2441D
L2441F
L2441H
L2443B
L2443D
L2443F
L2443H
L3221B
L3221D
L3221F
L3221H
L3223B
L3223D
L3223F
L3223H
L3241B
L3241D
L3241F
L3241H
L3243B
L3243D
L3243F
L3243H
L3421B
L3421D
L3421F
L3421H
L3423B
L3423D
L3423F
L3423H
L3441B
L3441D
L3441F
L3441H
L3443B
L3443D
L3443F
L3443H
L4221B
L4221D
L4221F
L4221H
L4223B
L4223D
L4223F
L4223H
L4241B
L4241D
L4241F
L4241H
L4243B
L4243D
L4243F
L4243H
L4421B
L4421D
L4421F
L4421H
L4423B
L4423D
L4423F
L4423H
L4441B
L4441D
L4441F
L4441H
L4443B
L4443D
L4443F
L4443H
L5221B
L5221D
L5221F
L5221H
L5223B
L5223D
L5223F
L5223H
L5241B
L5241D
L5241F
L5241H
L5243B
L2441A
L2441C
L2441E
L2441G
L2443A
L2443C
L2443E
L2443G
L3221A
L3221C
L3221E
L3221G
L3223A
L3223C
L3223E
L3223G
L3241A
L3241C
L3241E
L3241G
L3243A
L3243C
L3243E
L3243G
L3421A
L3421C
L3421E
L3421G
L3423A
L3423C
L3423E
L3423G
L3441A
L3441C
L3441E
L3441G
L3443A
L3443C
L3443E
L3443G
L4221A
L4221C
L4221E
L4221G
L4223A
L4223C
L4223E
L4223G
L4241A
L4241C
L4241E
L4241G
L4243A
L4243C
L4243E
L4243G
L4421A
L4421C
L4421E
L4421G
L4423A
L4423C
L4423E
L4423G
L4441A
L4441C
L4441E
L4441G
L4443A
L4443C
L4443E
L4443G
L5221A
L5221C
L5221E
L5221G
L5223A
L5223C
L5223E
L5223G
L5241A
L5241C
L5241E
L5241G
L2432B
L2432D
L2432F
L2432H
L2434B
L2434D
L2434F
L2434H
L3212B
L3212D
L3212F
L3212H
L3214B
L3214D
L3214F
L3214H
L3232B
L3232D
L3232F
L3232H
L3234B
L3234D
L3234F
L3234H
L3412B
L3412D
L3412F
L3412H
L3414B
L3414D
L3414F
L3414H
L3432B
L3432D
L3432F
L3432H
L3434B
L3434D
L3434F
L3434H
L4212B
L4212D
L4212F
L4212H
L4214B
L4214D
L4214F
L4214H
L4232B
L4232D
L4232F
L4232H
L4234B
L4234D
L4234F
L4234H
L4412B
L4412D
L4412F
L4412H
L4414B
L4414D
L4414F
L4414H
L4432B
L4432D
L4432F
L4432H
L4434B
L4434D
L4434F
L4434H
L5212B
L5212D
L5212F
L5212H
L5214B
L5214D
L5214F
L5214H
L5232B
L5232D
L5232F
L2432A
L2432C
L2432E
L2432G
L2434A
L2434C
L2434E
L2434G
L3212A
L3212C
L3212E
L3212G
L3214A
L3214C
L3214E
L3214G
L3232A
L3232C
L3232E
L3232G
L3234A
L3234C
L3234E
L3234G
L3412A
L3412C
L3412E
L3412G
L3414A
L3414C
L3414E
L3414G
L3432A
L3432C
L3432E
L3432G
L3434A
L3434C
L3434E
L3434G
L4212A
L4212C
L4212E
L4212G
L4214A
L4214C
L4214E
L4214G
L4232A
L4232C
L4232E
L4232G
L4234A
L4234C
L4234E
L4234G
L4412A
L4412C
L4412E
L4412G
L4414A
L4414C
L4414E
L4414G
L4432A
L4432C
L4432E
L4432G
L4434A
L4434C
L4434E
L4434G
L5212A
L5212C
L5212E
L5212G
L5214A
L5214C
L5214E
L5214G
L5232A
L5232C
L2431B
L2431D
L2431F
L2431H
L2433B
L2433D
L2433F
L2433H
L3211B
L3211D
L3211F
L3211H
L3213B
L3213D
L3213F
L3213H
L3231B
L3231D
L3231F
L3231H
L3233B
L3233D
L3233F
L3233H
L3411B
L3411D
L3411F
L3411H
L3413B
L3413D
L3413F
L3413H
L3431B
L3431D
L3431F
L3431H
L3433B
L3433D
L3433F
L3433H
L4211B
L4211D
L4211F
L4211H
L4213B
L4213D
L4213F
L4213H
L4231B
L4231D
L4231F
L4231H
L4233B
L4233D
L4233F
L4233H
L4411B
L4411D
L4411F
L4411H
L4413B
L4413D
L4413F
L4413H
L4431B
L4431D
L4431F
L4431H
L4433B
L4433D
L4433F
L4433H
L5211B
L5211D
L5211F
L5211H
L5213B
L5213D
L5213F
L5213H
L5231B
L2413G
L2431A
L2431C
L2431E
L2431G
L2433A
L2433C
L2433E
L2433G
L3211A
L3211C
L3211E
L3211G
L3213A
L3213C
L3213E
L3213G
L3231A
L3231C
L3231E
L3231G
L3233A
L3233C
L3233E
L3233G
L3411A
L3411C
L3411E
L3411G
L3413A
L3413C
L3413E
L3413G
L3431A
L3431C
L3431E
L3431G
L3433A
L3433C
L3433E
L3433G
L4211A
L4211C
L4211E
L4211G
L4213A
L4213C
L4213E
L4213G
L4231A
L4231C
L4231E
L4231G
L4233A
L4233C
L4233E
L4233G
L4411A
L4411C
L4411E
L4411G
L4413A
L4413C
L4413E
L4413G
L4431A
L4431C
L4431E
L4431G
L4433A
L4433C
L4433E
L4433G
L5211A
L5211C
L5211E
L5211G
L5213A
L5213C
L5213E
L5213G
L5231A
L2324H
L2342B
L2342D
L2342F
L2342H
L2344B
L2344D
L2344F
L2344H
L3122B
L3122D
L3122F
L3122H
L3124B
L3124D
L3124F
L3124H
L3142B
L3142D
L3142F
L3142H
L3144B
L3144D
L3144F
L3144H
L3322B
L3322D
L3322F
L3322H
L3324B
L3324D
L3324F
L3324H
L3342B
L3342D
L3342F
L3342H
L3344B
L3344D
L3344F
L3344H
L4122B
L4122D
L4122F
L4122H
L4124B
L4124D
L4124F
L4124H
L4142B
L4142D
L4142F
L4142H
L4144B
L4144D
L4144F
L4144H
L4322B
L4322D
L4322F
L4322H
L4324B
L4324D
L4324F
L4324H
L4342B
L4342D
L4342F
L4342H
L4344B
L4344D
L4344F
L4344H
L5122B
L5122D
L5122F
L5122H
L5124B
L5124D
L5124F
L5124H
L2324G
L2342A
L2342C
L2342E
L2342G
L2344A
L2344C
L2344E
L2344G
L3122A
L3122C
L3122E
L3122G
L3124A
L3124C
L3124E
L3124G
L3142A
L3142C
L3142E
L3142G
L3144A
L3144C
L3144E
L3144G
L3322A
L3322C
L3322E
L3322G
L3324A
L3324C
L3324E
L3324G
L3342A
L3342C
L3342E
L3342G
L3344A
L3344C
L3344E
L3344G
L4122A
L4122C
L4122E
L4122G
L4124A
L4124C
L4124E
L4124G
L4142A
L4142C
L4142E
L4142G
L4144A
L4144C
L4144E
L4144G
L4322A
L4322C
L4322E
L4322G
L4324A
L4324C
L4324E
L4324G
L4342A
L4342C
L4342E
L4342G
L4344A
L4344C
L4344E
L4344G
L5122A
L5122C
L5122E
L5122G
L5124A
L5124C
L5124E
L5124G
L2323F
L2323H
L2341B
L2341D
L2341F
L2341H
L2343B
L2343D
L2343F
L2343H
L3121B
L3121D
L3121F
L3121H
L3123B
L3123D
L3123F
L3123H
L3141B
L3141D
L3141F
L3141H
L3143B
L3143D
L3143F
L3143H
L3321B
L3321D
L3321F
L3321H
L3323B
L3323D
L3323F
L3323H
L3341B
L3341D
L3341F
L3341H
L3343B
L3343D
L3343F
L3343H
L4121B
L4121D
L4121F
L4121H
L4123B
L4123D
L4123F
L4123H
L4141B
L4141D
L4141F
L4141H
L4143B
L4143D
L4143F
L4143H
L4321B
L4321D
L4321F
L4321H
L4323B
L4323D
L4323F
L4323H
L4341B
L4341D
L4341F
L4341H
L4343B
L4343D
L4343F
L4343H
L5121B
L5121D
L5121F
L5121H
L5123B
L5123D
L5123F
L2323G
L2341A
L2341C
L2341E
L2341G
L2343A
L2343C
L2343E
L2343G
L3121A
L3121C
L3121E
L3121G
L3123A
L3123C
L3123E
L3123G
L3141A
L3141C
L3141E
L3141G
L3143A
L3143C
L3143E
L3143G
L3321A
L3321C
L3321E
L3321G
L3323A
L3323C
L3323E
L3323G
L3341A
L3341C
L3341E
L3341G
L3343A
L3343C
L3343E
L3343G
L4121A
L4121C
L4121E
L4121G
L4123A
L4123C
L4123E
L4123G
L4141A
L4141C
L4141E
L4141G
L4143A
L4143C
L4143E
L4143G
L4321A
L4321C
L4321E
L4321G
L4323A
L4323C
L4323E
L4323G
L4341A
L4341C
L4341E
L4341G
L4343A
L4343C
L4343E
L4343G
L5121A
L5121C
L5121E
L5121G
L5123A
L5123C
L5123E
L2314H
L2332B
L2332D
L2332F
L2332H
L2334B
L2334D
L2334F
L2334H
L3112B
L3112D
L3112F
L3112H
L3114B
L3114D
L3114F
L3114H
L3132B
L3132D
L3132F
L3132H
L3134B
L3134D
L3134F
L3134H
L3312B
L3312D
L3312F
L3312H
L3314B
L3314D
L3314F
L3314H
L3332B
L3332D
L3332F
L3332H
L3334B
L3334D
L3334F
L3334H
L4112B
L4112D
L4112F
L4112H
L4114B
L4114D
L4114F
L4114H
L4132B
L4132D
L4132F
L4132H
L4134B
L4134D
L4134F
L4134H
L4312B
L4312D
L4312F
L4312H
L4314B
L4314D
L4314F
L4314H
L4332B
L4332D
L4332F
L4332H
L4334B
L4334D
L4334F
L4334H
L5112B
L5112D
L5112F
L5112H
L5114B
L5114D
L2332A
L2332C
L2332E
L2332G
L2334A
L2334C
L2334E
L2334G
L3112A
L3112C
L3112E
L3112G
L3114A
L3114C
L3114E
L3114G
L3132A
L3132C
L3132E
L3132G
L3134A
L3134C
L3134E
L3134G
L3312A
L3312C
L3312E
L3312G
L3314A
L3314C
L3314E
L3314G
L3332A
L3332C
L3332E
L3332G
L3334A
L3334C
L3334E
L3334G
L4112A
L4112C
L4112E
L4112G
L4114A
L4114C
L4114E
L4114G
L4132A
L4132C
L4132E
L4132G
L4134A
L4134C
L4134E
L4134G
L4312A
L4312C
L4312E
L4312G
L4314A
L4314C
L4314E
L4314G
L4332A
L4332C
L4332E
L4332G
L4334A
L4334C
L4334E
L4334G
L5112A
L5112C
L5112E
L5112G
L5114A
L5114C
L2331B
L2331D
L2331F
L2331H
L2333B
L2333D
L2333F
L2333H
L3111B
L3111D
L3111F
L3111H
L3113B
L3113D
L3113F
L3113H
L3131B
L3131D
L3131F
L3131H
L3133B
L3133D
L3133F
L3133H
L3311B
L3311D
L3311F
L3311H
L3313B
L3313D
L3313F
L3313H
L3331B
L3331D
L3331F
L3331H
L3333B
L3333D
L3333F
L3333H
L4111B
L4111D
L4111F
L4111H
L4113B
L4113D
L4113F
L4113H
L4131B
L4131D
L4131F
L4131H
L4133B
L4133D
L4133F
L4133H
L4311B
L4311D
L4311F
L4311H
L4313B
L4313D
L4313F
L4313H
L4331B
L4331D
L4331F
L4331H
L4333B
L4333D
L4333F
L4333H
L5111B
L5111D
L5111F
L5111H
L5113B
L2331C
L2331E
L2331G
L2333A
L2333C
L2333E
L2333G
L3111A
L3111C
L3111E
L3111G
L3113A
L3113C
L3113E
L3113G
L3131A
L3131C
L3131E
L3131G
L3133A
L3133C
L3133E
L3133G
L3311A
L3311C
L3311E
L3311G
L3313A
L3313C
L3313E
L3313G
L3331A
L3331C
L3331E
L3331G
L3333A
L3333C
L3333E
L3333G
L4111A
L4111C
L4111E
L4111G
L4113A
L4113C
L4113E
L4113G
L4131A
L4131C
L4131E
L4131G
L4133A
L4133C
L4133E
L4133G
L4311A
L4311C
L4311E
L4311G
L4313A
L4313C
L4313E
L4313G
L4331A
L4331C
L4331E
L4331G
L4333A
L4333C
K2442F
K2442H
K2444B
K2444D
K2444F
K2444H
K3222B
K3222D
K3222F
K3222H
K3224B
K3224D
K3224F
K3224H
K3242B
K3242D
K3242F
K3242H
K3244B
K3244D
K3244F
K3244H
K3422B
K3422D
K3422F
K3422H
K3424B
K3424D
K3424F
K3424H
K3442B
K3442D
K3442F
K3442H
K3444B
K3444D
K3444F
K3444H
K4222B
K4222D
K4222F
K4222H
K4224B
K4224D
K4224F
K4224H
K4242B
K4242D
K4242F
K4242H
K4244B
K4244D
K4244F
K4244H
K4422B
K4422D
K4422F
K4422H
K4424B
K4424D
K4424F
K4424H
K4442B
K4442D
K4442F
K2442E
K2442G
K2444A
K2444C
K2444E
K2444G
K3222A
K3222C
K3222E
K3222G
K3224A
K3224C
K3224E
K3224G
K3242A
K3242C
K3242E
K3242G
K3244A
K3244C
K3244E
K3244G
K3422A
K3422C
K3422E
K3422G
K3424A
K3424C
K3424E
K3424G
K3442A
K3442C
K3442E
K3442G
K3444A
K3444C
K3444E
K3444G
K4222A
K4222C
K4222E
K4222G
K4224A
K4224C
K4224E
K4224G
K4242A
K4242C
K4242E
K4242G
K4244A
K4244C
K4244E
K4244G
K4422A
K4422C
K4422E
K4422G
K4424A
K4424C
K4424E
K4424G
K4442A
K4442C
K2441H
K2443B
K2443D
K2443F
K2443H
K3221B
K3221D
K3221F
K3221H
K3223B
K3223D
K3223F
K3223H
K3241B
K3241D
K3241F
K3241H
K3243B
K3243D
K3243F
K3243H
K3421B
K3421D
K3421F
K3421H
K3423B
K3423D
K3423F
K3423H
K3441B
K3441D
K3441F
K3441H
K3443B
K3443D
K3443F
K3443H
K4221B
K4221D
K4221F
K4221H
K4223B
K4223D
K4223F
K4223H
K4241B
K4241D
K4241F
K4241H
K4243B
K4243D
K4243F
K4243H
K4421B
K4421D
K4421F
K4421H
K4423B
K4423D
K4423F
K4423H
K2441G
K2443A
K2443C
K2443E
K2443G
K3221A
K3221C
K3221E
K3221G
K3223A
K3223C
K3223E
K3223G
K3241A
K3241C
K3241E
K3241G
K3243A
K3243C
K3243E
K3243G
K3421A
K3421C
K3421E
K3421G
K3423A
K3423C
K3423E
K3423G
K3441A
K3441C
K3441E
K3441G
K3443A
K3443C
K3443E
K3443G
K4221A
K4221C
K4221E
K4221G
K4223A
K4223C
K4223E
K4223G
K4241A
K4241C
K4241E
K4241G
K4243A
K4243C
K4243E
K4243G
K4421A
K4421C
K4421E
K4421G
K4423A
K4423C
K2434B
K2434D
K2434F
K2434H
K3212B
K3212D
K3212F
K3212H
K3214B
K3214D
K3214F
K3214H
K3232B
K3232D
K3232F
K3232H
K3234B
K3234D
K3234F
K3234H
K3412B
K3412D
K3412F
K3412H
K3414B
K3414D
K3414F
K3414H
K3432B
K3432D
K3432F
K3432H
K3434B
K3434D
K3434F
K3434H
K4212B
K4212D
K4212F
K4212H
K4214B
K4214D
K4214F
K4214H
K4232B
K4232D
K4232F
K4232H
K2434A
K2434C
K2434E
K2434G
K3212A
K3212C
K3212E
K3212G
K3214A
K3214C
K3214E
K3214G
K3232A
K3232C
K3232E
K3232G
K3234A
K3234C
K3234E
K3234G
K3412A
K3412C
K3412E
K3412G
K3414A
K3414C
K3414E
K3414G
K3432A
K3432C
K3432E
K3432G
K3434A
K3434C
K3434E
K3434G
K4212A
K4212C
K4212E
K4212G
K4214A
K4214C
K4214E
K4214G
K4232A
K4232C
K2433D
K2433F
K2433H
K3211B
K3211D
K3211F
K3211H
K3213B
K3213D
K3213F
K3213H
K3231B
K3231D
K3231F
K3231H
K3233B
K3233D
K3233F
K3233H
K3411B
K3411D
K3411F
K3411H
K3413B
K3413D
K3413F
K3413H
K3431B
K3431D
K3431F
K3431H
K3433B
K3433D
K3433F
K3433H
K4211B
K4211D
K4211F
K4211H
K4213B
K4213D
K2433E
K2433G
K3211A
K3211C
K3211E
K3211G
K3213A
K3213C
K3213E
K3213G
K3231A
K3231C
K3231E
K3231G
K3233A
K3233C
K3233E
K3233G
K3411A
K3411C
K3411E
K3411G
K3413A
K3413C
K3413E
K3413G
K3431A
K3431C
K3431E
K3431G
K3433A
K3433C
K3433E
K3433G
K4211A
K4211C
K2344H
K3122B
K3122D
K3122F
K3122H
K3124B
K3124D
K3124F
K3124H
K3142B
K3142D
K3142F
K3142H
K3144B
K3144D
K3144F
K3144H
K3322B
K3322D
K3322F
K3322H
K3324B
K3324D
K3324F
K3324H
K3342B
K3122A
K3122C
K3122E
K3124G
K3142A
K3142C
K3142E
K3142G
K3144A
K3144C
K3144E
K3144G
K3322A
K3322C
K3322E
K3322G
K3324A
K3324C
K3324E
K3141H
K3143B
K3143D
K3143F
K3143H
